FPS,LP,LR
1,0,0
1,0.025,0.2857142857142857
1,0.05,0
1,0.07500000000000001,0.07142857142857142
1,0.1,0.21428571428571427
1,0.125,0.07142857142857142
1,0.15,0.06666666666666667
1,0.175,0.35714285714285715
1,0.19999999999999998,0.3076923076923077
1,0.22499999999999998,0.38461538461538464
1,0.24999999999999997,0.3076923076923077
1,0.27499999999999997,0.21428571428571427
1,0.3,0.36363636363636365
1,0.325,0.3076923076923077
1,0.35000000000000003,0.38461538461538464
1,0.37500000000000006,0.5454545454545454
1,0.4000000000000001,0.4166666666666667
1,0.4250000000000001,0.5
1,0.4500000000000001,0.625
1,0.47500000000000014,0.5
1,0.5000000000000001,0.2
1,0.5250000000000001,0.5714285714285714
1,0.5500000000000002,0.3333333333333333
1,0.5750000000000002,0.3333333333333333
1,0.6000000000000002,0.6666666666666666
1,0.6250000000000002,0.5
1,0.6500000000000002,0.6
1,0.6750000000000003,0.5
1,0.7000000000000003,0.5714285714285714
1,0.7250000000000003,0.5
1,0.7500000000000003,0.6666666666666666
1,0.7750000000000004,1
1,0.8000000000000004,0.8
1,0.8250000000000004,1
1,0.8500000000000004,1
1,0.8750000000000004,1
1,0.9000000000000005,1
1,0.9250000000000005,1
1,0.9500000000000005,1
1,0.9750000000000005,1
10,0,0
10,0.025,0.2926829268292683
10,0.05,0.2671232876712329
10,0.07500000000000001,0.36875
10,0.1,0.8758620689655172
10,0.125,0.75
10,0.15,0.5547945205479452
10,0.175,0.33793103448275863
10,0.19999999999999998,0.5228758169934641
10,0.22499999999999998,0.48936170212765956
10,0.24999999999999997,0.5104895104895105
10,0.27499999999999997,0.4728682170542636
10,0.3,0.4015748031496063
10,0.325,0.47692307692307695
10,0.35000000000000003,0.5041322314049587
10,0.37500000000000006,0.4083333333333333
10,0.4000000000000001,0.5535714285714286
10,0.4250000000000001,0.5517241379310345
10,0.4500000000000001,0.5208333333333334
10,0.47500000000000014,0.62
10,0.5000000000000001,0.6853932584269663
10,0.5250000000000001,0.6071428571428571
10,0.5500000000000002,0.7317073170731707
10,0.5750000000000002,0.7272727272727273
10,0.6000000000000002,0.8461538461538461
10,0.6250000000000002,0.8275862068965517
10,0.6500000000000002,0.7857142857142857
10,0.6750000000000003,0.8490566037735849
10,0.7000000000000003,0.8771929824561403
10,0.7250000000000003,0.875
10,0.7500000000000003,0.9047619047619048
10,0.7750000000000004,0.9722222222222222
10,0.8000000000000004,0.9655172413793104
10,0.8250000000000004,0.9705882352941176
10,0.8500000000000004,1
10,0.8750000000000004,1
10,0.9000000000000005,1
10,0.9250000000000005,1
10,0.9500000000000005,1
10,0.9750000000000005,1
100,0,0
100,0.025,0.5770065075921909
100,0.05,0.8387096774193549
100,0.07500000000000001,0.9225352112676056
100,0.1,0.9675810473815462
100,0.125,0.9579207920792079
100,0.15,0.9856115107913669
100,0.175,0.9924242424242424
100,0.19999999999999998,0.9922077922077922
100,0.22499999999999998,0.9974226804123711
100,0.24999999999999997,0.9973544973544973
100,0.27499999999999997,0.9945652173913043
100,0.3,0.9974093264248705
100,0.325,0.9969512195121951
100,0.35000000000000003,0.9972222222222222
100,0.37500000000000006,0.9969604863221885
100,0.4000000000000001,1
100,0.4250000000000001,0.9968847352024922
100,0.4500000000000001,0.996996996996997
100,0.47500000000000014,1
100,0.5000000000000001,1
100,0.5250000000000001,0.9973404255319149
100,0.5500000000000002,0.9971830985915493
100,0.5750000000000002,0.9971830985915493
100,0.6000000000000002,1
100,0.6250000000000002,1
100,0.6500000000000002,0.9975786924939467
100,0.6750000000000003,0.9973190348525469
100,0.7000000000000003,0.9976744186046511
100,0.7250000000000003,1
100,0.7500000000000003,0.9944289693593314
100,0.7750000000000004,0.9969040247678018
100,0.8000000000000004,0.9966666666666667
100,0.8250000000000004,0.9963235294117647
100,0.8500000000000004,1
100,0.8750000000000004,1
100,0.9000000000000005,1
100,0.9250000000000005,1
100,0.9500000000000005,1
100,0.9750000000000005,1
109,0,0.00477326968973747
109,0.025,0.6116071428571429
109,0.05,0.8255813953488372
109,0.07500000000000001,0.9129411764705883
109,0.1,0.957345971563981
109,0.125,0.9529702970297029
109,0.15,0.9877450980392157
109,0.175,0.9869791666666666
109,0.19999999999999998,0.9872122762148338
109,0.22499999999999998,0.9924242424242424
109,0.24999999999999997,0.9973404255319149
109,0.27499999999999997,1
109,0.3,0.9973262032085561
109,0.325,1
109,0.35000000000000003,0.9971509971509972
109,0.37500000000000006,0.9968944099378882
109,0.4000000000000001,1
109,0.4250000000000001,0.997093023255814
109,0.4500000000000001,1
109,0.47500000000000014,0.9970588235294118
109,0.5000000000000001,1
109,0.5250000000000001,1
109,0.5500000000000002,0.9972451790633609
109,0.5750000000000002,0.9972451790633609
109,0.6000000000000002,1
109,0.6250000000000002,0.9975845410628019
109,0.6500000000000002,0.9973821989528796
109,0.6750000000000003,1
109,0.7000000000000003,1
109,0.7250000000000003,0.9952267303102625
109,0.7500000000000003,0.9976470588235294
109,0.7750000000000004,1
109,0.8000000000000004,1
109,0.8250000000000004,1
109,0.8500000000000004,1
109,0.8750000000000004,1
109,0.9000000000000005,1
109,0.9250000000000005,1
109,0.9500000000000005,1
109,0.9750000000000005,0.9787234042553191
118,0,0.004987531172069825
118,0.025,0.5774647887323944
118,0.05,0.8585365853658536
118,0.07500000000000001,0.9228971962616822
118,0.1,0.9462102689486552
118,0.125,0.9762532981530343
118,0.15,0.9880952380952381
118,0.175,0.9949494949494949
118,0.19999999999999998,0.9922680412371134
118,0.22499999999999998,0.9946236559139785
118,0.24999999999999997,0.9947089947089947
118,0.27499999999999997,0.9973544973544973
118,0.3,1
118,0.325,1
118,0.35000000000000003,0.9938650306748467
118,0.37500000000000006,0.9968553459119497
118,0.4000000000000001,0.9937304075235109
118,0.4250000000000001,0.9970760233918129
118,0.4500000000000001,1
118,0.47500000000000014,0.9970238095238095
118,0.5000000000000001,1
118,0.5250000000000001,1
118,0.5500000000000002,0.9973045822102425
118,0.5750000000000002,0.9971181556195965
118,0.6000000000000002,1
118,0.6250000000000002,1
118,0.6500000000000002,1
118,0.6750000000000003,0.9973890339425587
118,0.7000000000000003,1
118,0.7250000000000003,1
118,0.7500000000000003,1
118,0.7750000000000004,1
118,0.8000000000000004,1
118,0.8250000000000004,1
118,0.8500000000000004,1
118,0.8750000000000004,1
118,0.9000000000000005,1
118,0.9250000000000005,0.993006993006993
118,0.9500000000000005,1
118,0.9750000000000005,0.9777777777777777
127,0,0.005194805194805195
127,0.025,0.6186868686868687
127,0.05,0.8288508557457213
127,0.07500000000000001,0.8970588235294118
127,0.1,0.958974358974359
127,0.125,0.9807162534435262
127,0.15,0.9974874371859297
127,0.175,0.9801136363636364
127,0.19999999999999998,0.9894459102902374
127,0.22499999999999998,0.9946666666666667
127,0.24999999999999997,0.9971590909090909
127,0.27499999999999997,1
127,0.3,0.9974554707379135
127,0.325,0.9968051118210862
127,0.35000000000000003,0.9970760233918129
127,0.37500000000000006,1
127,0.4000000000000001,0.9967948717948718
127,0.4250000000000001,0.9969604863221885
127,0.4500000000000001,0.9968253968253968
127,0.47500000000000014,1
127,0.5000000000000001,0.9971751412429378
127,0.5250000000000001,1
127,0.5500000000000002,1
127,0.5750000000000002,0.9972067039106145
127,0.6000000000000002,1
127,0.6250000000000002,1
127,0.6500000000000002,1
127,0.6750000000000003,1
127,0.7000000000000003,0.9975247524752475
127,0.7250000000000003,1
127,0.7500000000000003,1
127,0.7750000000000004,0.9977426636568849
127,0.8000000000000004,0.9977973568281938
127,0.8250000000000004,0.997289972899729
127,0.8500000000000004,1
127,0.8750000000000004,1
127,0.9000000000000005,0.995260663507109
127,0.9250000000000005,1
127,0.9500000000000005,1
127,0.9750000000000005,1
136,0,0.009950248756218905
136,0.025,0.5880893300248139
136,0.05,0.8391089108910891
136,0.07500000000000001,0.9290780141843972
136,0.1,0.9561855670103093
136,0.125,0.9574468085106383
136,0.15,0.9835680751173709
136,0.175,0.9973118279569892
136,0.19999999999999998,0.9919786096256684
136,0.22499999999999998,0.989010989010989
136,0.24999999999999997,0.9974160206718347
136,0.27499999999999997,0.9948979591836735
136,0.3,0.9973404255319149
136,0.325,0.9966887417218543
136,0.35000000000000003,0.9972826086956522
136,0.37500000000000006,1
136,0.4000000000000001,0.9969512195121951
136,0.4250000000000001,0.9969325153374233
136,0.4500000000000001,1
136,0.47500000000000014,0.9971428571428571
136,0.5000000000000001,0.9975
136,0.5250000000000001,1
136,0.5500000000000002,0.9973262032085561
136,0.5750000000000002,1
136,0.6000000000000002,1
136,0.6250000000000002,0.9975308641975309
136,0.6500000000000002,0.997737556561086
136,0.6750000000000003,1
136,0.7000000000000003,1
136,0.7250000000000003,0.9974619289340102
136,0.7500000000000003,1
136,0.7750000000000004,0.9975429975429976
136,0.8000000000000004,1
136,0.8250000000000004,1
136,0.8500000000000004,1
136,0.8750000000000004,1
136,0.9000000000000005,1
136,0.9250000000000005,1
136,0.9500000000000005,1
136,0.9750000000000005,1
145,0,0
145,0.025,0.6098191214470284
145,0.05,0.8722826086956522
145,0.07500000000000001,0.8817480719794345
145,0.1,0.953125
145,0.125,0.9610778443113772
145,0.15,0.9897172236503856
145,0.175,0.9889196675900277
145,0.19999999999999998,0.9942857142857143
145,0.22499999999999998,0.9971988795518207
145,0.24999999999999997,0.9971590909090909
145,0.27499999999999997,0.9911504424778761
145,0.3,0.994475138121547
145,0.325,0.9965753424657534
145,0.35000000000000003,0.9968152866242038
145,0.37500000000000006,1
145,0.4000000000000001,1
145,0.4250000000000001,1
145,0.4500000000000001,1
145,0.47500000000000014,0.997134670487106
145,0.5000000000000001,0.9970674486803519
145,0.5250000000000001,0.9971751412429378
145,0.5500000000000002,0.9971098265895953
145,0.5750000000000002,1
145,0.6000000000000002,1
145,0.6250000000000002,1
145,0.6500000000000002,1
145,0.6750000000000003,0.9975
145,0.7000000000000003,1
145,0.7250000000000003,0.9976798143851509
145,0.7500000000000003,0.9975369458128078
145,0.7750000000000004,1
145,0.8000000000000004,1
145,0.8250000000000004,0.9977272727272727
145,0.8500000000000004,1
145,0.8750000000000004,1
145,0.9000000000000005,0.9962546816479401
145,0.9250000000000005,1
145,0.9500000000000005,1
145,0.9750000000000005,1
154,0,0.010638297872340425
154,0.025,0.6016713091922006
154,0.05,0.8209718670076727
154,0.07500000000000001,0.8970976253298153
154,0.1,0.9549071618037135
154,0.125,0.9757575757575757
154,0.15,0.9844155844155844
154,0.175,0.9896103896103896
154,0.19999999999999998,0.9972826086956522
154,0.22499999999999998,0.9916434540389972
154,0.24999999999999997,0.9972972972972973
154,0.27499999999999997,0.9974025974025974
154,0.3,1
154,0.325,1
154,0.35000000000000003,0.993920972644377
154,0.37500000000000006,0.9964539007092199
154,0.4000000000000001,0.9965986394557823
154,0.4250000000000001,0.9966777408637874
154,0.4500000000000001,0.996551724137931
154,0.47500000000000014,1
154,0.5000000000000001,0.9972375690607734
154,0.5250000000000001,1
154,0.5500000000000002,0.9971751412429378
154,0.5750000000000002,0.9971671388101983
154,0.6000000000000002,1
154,0.6250000000000002,1
154,0.6500000000000002,1
154,0.6750000000000003,0.9975429975429976
154,0.7000000000000003,0.9976525821596244
154,0.7250000000000003,1
154,0.7500000000000003,0.9976689976689976
154,0.7750000000000004,1
154,0.8000000000000004,1
154,0.8250000000000004,1
154,0.8500000000000004,1
154,0.8750000000000004,1
154,0.9000000000000005,1
154,0.9250000000000005,1
154,0.9500000000000005,0.9926470588235294
154,0.9750000000000005,1
163,0,0.005277044854881266
163,0.025,0.531328320802005
163,0.05,0.7867036011080333
163,0.07500000000000001,0.9226666666666666
163,0.1,0.981029810298103
163,0.125,0.9638888888888889
163,0.15,0.9712041884816754
163,0.175,0.9855072463768116
163,0.19999999999999998,0.9894179894179894
163,0.22499999999999998,0.9944903581267218
163,0.24999999999999997,0.9944289693593314
163,0.27499999999999997,0.9972972972972973
163,0.3,1
163,0.325,0.996415770609319
163,0.35000000000000003,0.9968944099378882
163,0.37500000000000006,0.9966555183946488
163,0.4000000000000001,1
163,0.4250000000000001,0.9962121212121212
163,0.4500000000000001,0.9966101694915255
163,0.47500000000000014,0.9970059880239521
163,0.5000000000000001,0.9975062344139651
163,0.5250000000000001,1
163,0.5500000000000002,0.9969788519637462
163,0.5750000000000002,0.9971590909090909
163,0.6000000000000002,0.9974160206718347
163,0.6250000000000002,1
163,0.6500000000000002,1
163,0.6750000000000003,0.9974747474747475
163,0.7000000000000003,1
163,0.7250000000000003,0.997716894977169
163,0.7500000000000003,1
163,0.7750000000000004,1
163,0.8000000000000004,0.9978118161925602
163,0.8250000000000004,1
163,0.8500000000000004,1
163,0.8750000000000004,1
163,0.9000000000000005,1
163,0.9250000000000005,0.9947368421052631
163,0.9500000000000005,1
163,0.9750000000000005,1
172,0,0
172,0.025,0.5931232091690545
172,0.05,0.8085714285714286
172,0.07500000000000001,0.8888888888888888
172,0.1,0.9613095238095238
172,0.125,0.9736070381231672
172,0.15,0.98
172,0.175,0.9941690962099126
172,0.19999999999999998,1
172,0.22499999999999998,0.9971014492753624
172,0.24999999999999997,0.9940298507462687
172,0.27499999999999997,0.9943820224719101
172,0.3,1
172,0.325,0.996078431372549
172,0.35000000000000003,0.9965635738831615
172,0.37500000000000006,0.9955357142857143
172,0.4000000000000001,0.9917695473251029
172,0.4250000000000001,1
172,0.4500000000000001,0.9963898916967509
172,0.47500000000000014,0.996742671009772
172,0.5000000000000001,1
172,0.5250000000000001,1
172,0.5500000000000002,1
172,0.5750000000000002,0.9970501474926253
172,0.6000000000000002,1
172,0.6250000000000002,1
172,0.6500000000000002,0.9974811083123426
172,0.6750000000000003,0.9975609756097561
172,0.7000000000000003,0.9973404255319149
172,0.7250000000000003,1
172,0.7500000000000003,1
172,0.7750000000000004,0.9975728155339806
172,0.8000000000000004,1
172,0.8250000000000004,1
172,0.8500000000000004,0.9978401727861771
172,0.8750000000000004,1
172,0.9000000000000005,1
172,0.9250000000000005,1
172,0.9500000000000005,1
172,0.9750000000000005,1
181,0,0
181,0.025,0.625
181,0.05,0.7623188405797101
181,0.07500000000000001,0.8711340206185567
181,0.1,0.957983193277311
181,0.125,0.9839228295819936
181,0.15,0.989041095890411
181,0.175,0.9886363636363636
181,0.19999999999999998,0.993421052631579
181,0.22499999999999998,0.9906542056074766
181,0.24999999999999997,0.9969512195121951
181,0.27499999999999997,0.994413407821229
181,0.3,1
181,0.325,0.9964028776978417
181,0.35000000000000003,1
181,0.37500000000000006,0.9960474308300395
181,0.4000000000000001,0.9962546816479401
181,0.4250000000000001,0.9962962962962963
181,0.4500000000000001,0.9966996699669967
181,0.47500000000000014,1
181,0.5000000000000001,0.9969512195121951
181,0.5250000000000001,1
181,0.5500000000000002,1
181,0.5750000000000002,0.9971014492753624
181,0.6000000000000002,1
181,0.6250000000000002,1
181,0.6500000000000002,1
181,0.6750000000000003,1
181,0.7000000000000003,1
181,0.7250000000000003,1
181,0.7500000000000003,0.9975609756097561
181,0.7750000000000004,1
181,0.8000000000000004,0.9973474801061007
181,0.8250000000000004,1
181,0.8500000000000004,1
181,0.8750000000000004,1
181,0.9000000000000005,1
181,0.9250000000000005,1
181,0.9500000000000005,1
181,0.9750000000000005,1
19,0,0.007518796992481203
19,0.025,0.35738831615120276
19,0.05,0.6752767527675276
19,0.07500000000000001,0.9067796610169492
19,0.1,0.8828451882845189
19,0.125,0.8986784140969163
19,0.15,0.9273504273504274
19,0.175,0.963302752293578
19,0.19999999999999998,0.8468468468468469
19,0.22499999999999998,0.9629629629629629
19,0.24999999999999997,0.8771929824561403
19,0.27499999999999997,0.8392857142857143
19,0.3,0.757847533632287
19,0.325,0.8592233009708737
19,0.35000000000000003,0.6696428571428571
19,0.37500000000000006,0.7253886010362695
19,0.4000000000000001,0.6839622641509434
19,0.4250000000000001,0.6526315789473685
19,0.4500000000000001,0.6903553299492385
19,0.47500000000000014,0.7473684210526316
19,0.5000000000000001,0.7426900584795322
19,0.5250000000000001,0.8066666666666666
19,0.5500000000000002,0.8571428571428571
19,0.5750000000000002,0.7727272727272727
19,0.6000000000000002,0.7936507936507936
19,0.6250000000000002,0.8706896551724138
19,0.6500000000000002,0.9217391304347826
19,0.6750000000000003,0.9479166666666666
19,0.7000000000000003,0.9411764705882353
19,0.7250000000000003,0.9764705882352941
19,0.7500000000000003,0.9864864864864865
19,0.7750000000000004,0.9821428571428571
19,0.8000000000000004,0.9841269841269841
19,0.8250000000000004,1
19,0.8500000000000004,1
19,0.8750000000000004,0.96
19,0.9000000000000005,1
19,0.9250000000000005,0.9473684210526315
19,0.9500000000000005,1
19,0.9750000000000005,1
190,0,0.00546448087431694
190,0.025,0.5269461077844312
190,0.05,0.7832369942196532
190,0.07500000000000001,0.8982558139534884
190,0.1,0.956268221574344
190,0.125,0.9836601307189542
190,0.15,0.9838274932614556
190,0.175,0.9880597014925373
190,0.19999999999999998,0.9900990099009901
190,0.22499999999999998,0.9943661971830986
190,0.24999999999999997,0.9968944099378882
190,0.27499999999999997,0.9971098265895953
190,0.3,0.9971751412429378
190,0.325,0.9962264150943396
190,0.35000000000000003,0.9969879518072289
190,0.37500000000000006,0.9959349593495935
190,0.4000000000000001,0.9964028776978417
190,0.4250000000000001,1
190,0.4500000000000001,0.9966887417218543
190,0.47500000000000014,0.996969696969697
190,0.5000000000000001,1
190,0.5250000000000001,1
190,0.5500000000000002,1
190,0.5750000000000002,1
190,0.6000000000000002,1
190,0.6250000000000002,1
190,0.6500000000000002,0.9975669099756691
190,0.6750000000000003,0.9975124378109452
190,0.7000000000000003,0.9975669099756691
190,0.7250000000000003,1
190,0.7500000000000003,1
190,0.7750000000000004,1
190,0.8000000000000004,1
190,0.8250000000000004,1
190,0.8500000000000004,1
190,0.8750000000000004,1
190,0.9000000000000005,1
190,0.9250000000000005,1
190,0.9500000000000005,1
190,0.9750000000000005,1
199,0,0.005361930294906166
199,0.025,0.6392045454545454
199,0.05,0.7969543147208121
199,0.07500000000000001,0.903954802259887
199,0.1,0.9530791788856305
199,0.125,0.9770773638968482
199,0.15,0.9771428571428571
199,0.175,0.9912023460410557
199,0.19999999999999998,0.9909365558912386
199,0.22499999999999998,0.9969604863221885
199,0.24999999999999997,1
199,0.27499999999999997,0.9943181818181818
199,0.3,1
199,0.325,1
199,0.35000000000000003,0.9966555183946488
199,0.37500000000000006,0.9957264957264957
199,0.4000000000000001,1
199,0.4250000000000001,0.99609375
199,0.4500000000000001,1
199,0.47500000000000014,0.9966555183946488
199,0.5000000000000001,1
199,0.5250000000000001,0.9970845481049563
199,0.5500000000000002,0.9967637540453075
199,0.5750000000000002,0.9969040247678018
199,0.6000000000000002,1
199,0.6250000000000002,1
199,0.6500000000000002,1
199,0.6750000000000003,1
199,0.7000000000000003,1
199,0.7250000000000003,1
199,0.7500000000000003,1
199,0.7750000000000004,1
199,0.8000000000000004,1
199,0.8250000000000004,1
199,0.8500000000000004,1
199,0.8750000000000004,1
199,0.9000000000000005,1
199,0.9250000000000005,1
199,0.9500000000000005,1
199,0.9750000000000005,1
28,0,0
28,0.025,0.7842105263157895
28,0.05,0.792022792022792
28,0.07500000000000001,0.8993506493506493
28,0.1,0.9230769230769231
28,0.125,0.9343065693430657
28,0.15,0.978494623655914
28,0.175,0.9636363636363636
28,0.19999999999999998,0.9851301115241635
28,0.22499999999999998,0.9852941176470589
28,0.24999999999999997,0.9922178988326849
28,0.27499999999999997,1
28,0.3,0.9811320754716981
28,0.325,0.980544747081712
28,0.35000000000000003,0.9883268482490273
28,0.37500000000000006,0.9879518072289156
28,0.4000000000000001,0.9007936507936508
28,0.4250000000000001,0.8098859315589354
28,0.4500000000000001,0.8443579766536965
28,0.47500000000000014,0.8260869565217391
28,0.5000000000000001,0.834061135371179
28,0.5250000000000001,0.8303571428571429
28,0.5500000000000002,0.8772727272727273
28,0.5750000000000002,0.861244019138756
28,0.6000000000000002,0.8716577540106952
28,0.6250000000000002,0.9212121212121213
28,0.6500000000000002,0.9408284023668639
28,0.6750000000000003,0.952054794520548
28,0.7000000000000003,0.951048951048951
28,0.7250000000000003,0.9444444444444444
28,0.7500000000000003,0.9789473684210527
28,0.7750000000000004,0.9772727272727273
28,0.8000000000000004,0.9900990099009901
28,0.8250000000000004,0.9859154929577465
28,0.8500000000000004,0.9852941176470589
28,0.8750000000000004,0.9830508474576272
28,0.9000000000000005,1
28,0.9250000000000005,1
28,0.9500000000000005,1
28,0.9750000000000005,0.9
37,0,0.004484304932735426
37,0.025,0.7533333333333333
37,0.05,0.8524590163934426
37,0.07500000000000001,0.9269005847953217
37,0.1,0.9233128834355828
37,0.125,0.9626168224299065
37,0.15,0.9603960396039604
37,0.175,0.9676375404530745
37,0.19999999999999998,0.9773462783171522
37,0.22499999999999998,0.9807692307692307
37,0.24999999999999997,0.9832214765100671
37,0.27499999999999997,0.9933774834437086
37,0.3,0.9800664451827242
37,0.325,0.9925373134328358
37,0.35000000000000003,0.996551724137931
37,0.37500000000000006,0.9961685823754789
37,0.4000000000000001,0.9925650557620818
37,0.4250000000000001,0.9966329966329966
37,0.4500000000000001,0.9793103448275862
37,0.47500000000000014,0.974910394265233
37,0.5000000000000001,0.8637873754152824
37,0.5250000000000001,0.8945578231292517
37,0.5500000000000002,0.8847583643122676
37,0.5750000000000002,0.9274193548387096
37,0.6000000000000002,0.9385245901639344
37,0.6250000000000002,0.9777777777777777
37,0.6500000000000002,0.9540816326530612
37,0.6750000000000003,0.9615384615384616
37,0.7000000000000003,0.9881656804733728
37,0.7250000000000003,0.9794520547945206
37,0.7500000000000003,0.9931506849315068
37,0.7750000000000004,0.9823008849557522
37,0.8000000000000004,0.9803921568627451
37,0.8250000000000004,0.9809523809523809
37,0.8500000000000004,0.9864864864864865
37,0.8750000000000004,1
37,0.9000000000000005,1
37,0.9250000000000005,1
37,0.9500000000000005,1
37,0.9750000000000005,1
46,0,0
46,0.025,0.7352941176470589
46,0.05,0.857487922705314
46,0.07500000000000001,0.9324324324324325
46,0.1,0.9643835616438357
46,0.125,0.9749303621169917
46,0.15,0.9731182795698925
46,0.175,0.9842767295597484
46,0.19999999999999998,0.9850746268656716
46,0.22499999999999998,0.9905956112852664
46,0.24999999999999997,0.9875389408099688
46,0.27499999999999997,0.9903536977491961
46,0.3,0.993485342019544
46,0.325,0.9900662251655629
46,0.35000000000000003,0.9935691318327974
46,0.37500000000000006,1
46,0.4000000000000001,1
46,0.4250000000000001,0.9933774834437086
46,0.4500000000000001,0.9968152866242038
46,0.47500000000000014,0.9939024390243902
46,0.5000000000000001,0.9935064935064936
46,0.5250000000000001,1
46,0.5500000000000002,0.981651376146789
46,0.5750000000000002,0.9301587301587302
46,0.6000000000000002,0.9551282051282052
46,0.6250000000000002,0.9602888086642599
46,0.6500000000000002,0.9448818897637795
46,0.6750000000000003,0.9765625
46,0.7000000000000003,0.9850746268656716
46,0.7250000000000003,0.9845360824742269
46,0.7500000000000003,0.9774011299435028
46,0.7750000000000004,0.9826589595375722
46,0.8000000000000004,0.9932432432432432
46,0.8250000000000004,1
46,0.8500000000000004,1
46,0.8750000000000004,0.98989898989899
46,0.9000000000000005,1
46,0.9250000000000005,1
46,0.9500000000000005,1
46,0.9750000000000005,1
55,0,0.004454342984409799
55,0.025,0.6974789915966386
55,0.05,0.8690476190476191
55,0.07500000000000001,0.9291139240506329
55,0.1,0.9511568123393316
55,0.125,0.9812332439678284
55,0.15,0.9726775956284153
55,0.175,0.9854227405247813
55,0.19999999999999998,0.9882352941176471
55,0.22499999999999998,0.9911504424778761
55,0.24999999999999997,0.989159891598916
55,0.27499999999999997,0.9941690962099126
55,0.3,0.9910979228486647
55,0.325,0.9905956112852664
55,0.35000000000000003,0.9969325153374233
55,0.37500000000000006,0.9967948717948718
55,0.4000000000000001,0.9968152866242038
55,0.4250000000000001,1
55,0.4500000000000001,0.9969604863221885
55,0.47500000000000014,1
55,0.5000000000000001,0.9968553459119497
55,0.5250000000000001,1
55,0.5500000000000002,0.9940298507462687
55,0.5750000000000002,0.9969788519637462
55,0.6000000000000002,0.9751552795031055
55,0.6250000000000002,0.9676375404530745
55,0.6500000000000002,0.9728915662650602
55,0.6750000000000003,0.9525691699604744
55,0.7000000000000003,0.9851851851851852
55,0.7250000000000003,0.986784140969163
55,0.7500000000000003,0.9951923076923077
55,0.7750000000000004,0.9845360824742269
55,0.8000000000000004,0.9943502824858758
55,0.8250000000000004,0.9935064935064936
55,0.8500000000000004,1
55,0.8750000000000004,0.99
55,0.9000000000000005,1
55,0.9250000000000005,1
55,0.9500000000000005,1
55,0.9750000000000005,1
64,0,0
64,0.025,0.6598360655737705
64,0.05,0.8512195121951219
64,0.07500000000000001,0.9344660194174758
64,0.1,0.9566265060240964
64,0.125,0.9772151898734177
64,0.15,0.9845360824742269
64,0.175,0.9973118279569892
64,0.19999999999999998,0.9893617021276596
64,0.22499999999999998,0.9942196531791907
64,0.24999999999999997,0.988795518207283
64,0.27499999999999997,0.9941690962099126
64,0.3,0.9884057971014493
64,0.325,0.996996996996997
64,0.35000000000000003,0.9969040247678018
64,0.37500000000000006,0.9936102236421726
64,0.4000000000000001,0.9967948717948718
64,0.4250000000000001,1
64,0.4500000000000001,0.9970674486803519
64,0.47500000000000014,1
64,0.5000000000000001,1
64,0.5250000000000001,0.9972144846796658
64,0.5500000000000002,1
64,0.5750000000000002,1
64,0.6000000000000002,1
64,0.6250000000000002,0.9970760233918129
64,0.6500000000000002,0.9826589595375722
64,0.6750000000000003,0.974025974025974
64,0.7000000000000003,0.9932659932659933
64,0.7250000000000003,0.992619926199262
64,0.7500000000000003,0.9813432835820896
64,0.7750000000000004,1
64,0.8000000000000004,0.9952153110047847
64,0.8250000000000004,0.9932432432432432
64,0.8500000000000004,1
64,0.8750000000000004,1
64,0.9000000000000005,1
64,0.9250000000000005,1
64,0.9500000000000005,1
64,0.9750000000000005,1
73,0,0.004618937644341801
73,0.025,0.6425531914893617
73,0.05,0.8729792147806005
73,0.07500000000000001,0.9301204819277108
73,0.1,0.9545454545454546
73,0.125,0.9679144385026738
73,0.15,0.9703703703703703
73,0.175,0.9796954314720813
73,0.19999999999999998,0.9974358974358974
73,0.22499999999999998,0.9948051948051948
73,0.24999999999999997,0.9972602739726028
73,0.27499999999999997,1
73,0.3,0.991869918699187
73,0.325,1
73,0.35000000000000003,0.9971671388101983
73,0.37500000000000006,0.9969879518072289
73,0.4000000000000001,0.9969788519637462
73,0.4250000000000001,0.9970588235294118
73,0.4500000000000001,1
73,0.47500000000000014,0.9970674486803519
73,0.5000000000000001,0.997229916897507
73,0.5250000000000001,0.9971830985915493
73,0.5500000000000002,1
73,0.5750000000000002,1
73,0.6000000000000002,1
73,0.6250000000000002,1
73,0.6500000000000002,1
73,0.6750000000000003,0.9917582417582418
73,0.7000000000000003,0.9836512261580381
73,0.7250000000000003,0.9839228295819936
73,0.7500000000000003,0.9925373134328358
73,0.7750000000000004,0.9961240310077519
73,0.8000000000000004,0.9959183673469387
73,0.8250000000000004,1
73,0.8500000000000004,1
73,0.8750000000000004,1
73,0.9000000000000005,0.9905660377358491
73,0.9250000000000005,0.9873417721518988
73,0.9500000000000005,1
73,0.9750000000000005,1
82,0,0.004662004662004662
82,0.025,0.6303418803418803
82,0.05,0.8226164079822617
82,0.07500000000000001,0.9386792452830188
82,0.1,0.9829268292682927
82,0.125,0.9743589743589743
82,0.15,0.9728395061728395
82,0.175,0.9919571045576407
82,0.19999999999999998,0.9895833333333334
82,0.22499999999999998,0.994750656167979
82,0.24999999999999997,0.9947089947089947
82,0.27499999999999997,0.9894179894179894
82,0.3,0.9945652173913043
82,0.325,0.9941690962099126
82,0.35000000000000003,0.9969040247678018
82,0.37500000000000006,0.996969696969697
82,0.4000000000000001,0.9969230769230769
82,0.4250000000000001,1
82,0.4500000000000001,1
82,0.47500000000000014,1
82,0.5000000000000001,0.997134670487106
82,0.5250000000000001,1
82,0.5500000000000002,0.9971910112359551
82,0.5750000000000002,1
82,0.6000000000000002,0.9973958333333334
82,0.6250000000000002,0.9973404255319149
82,0.6500000000000002,1
82,0.6750000000000003,1
82,0.7000000000000003,0.9947780678851175
82,0.7250000000000003,0.9970326409495549
82,0.7500000000000003,0.9926470588235294
82,0.7750000000000004,0.9963898916967509
82,0.8000000000000004,1
82,0.8250000000000004,0.9955947136563876
82,0.8500000000000004,1
82,0.8750000000000004,1
82,0.9000000000000005,1
82,0.9250000000000005,1
82,0.9500000000000005,1
82,0.9750000000000005,1
91,0,0
91,0.025,0.6274509803921569
91,0.05,0.8352668213457076
91,0.07500000000000001,0.9150943396226415
91,0.1,0.9586374695863747
91,0.125,0.9763779527559056
91,0.15,0.9855769230769231
91,0.175,0.9897172236503856
91,0.19999999999999998,0.9893333333333333
91,0.22499999999999998,0.9973614775725593
91,0.24999999999999997,0.9921052631578947
91,0.27499999999999997,0.9973262032085561
91,0.3,0.9972602739726028
91,0.325,0.997093023255814
91,0.35000000000000003,1
91,0.37500000000000006,0.9969418960244648
91,0.4000000000000001,0.996742671009772
91,0.4250000000000001,0.996996996996997
91,0.4500000000000001,1
91,0.47500000000000014,0.9973404255319149
91,0.5000000000000001,1
91,0.5250000000000001,1
91,0.5500000000000002,0.997134670487106
91,0.5750000000000002,1
91,0.6000000000000002,1
91,0.6250000000000002,1
91,0.6500000000000002,1
91,0.6750000000000003,0.9972677595628415
91,0.7000000000000003,1
91,0.7250000000000003,1
91,0.7500000000000003,1
91,0.7750000000000004,0.9971428571428571
91,0.8000000000000004,1
91,0.8250000000000004,1
91,0.8500000000000004,1
91,0.8750000000000004,1
91,0.9000000000000005,1
91,0.9250000000000005,1
91,0.9500000000000005,1
91,0.9750000000000005,1
