FPS,LP,LR
1,0,0
1,0.025,0
1,0.05,0.07692307692307693
1,0.07500000000000001,0.14285714285714285
1,0.1,0.23076923076923078
1,0.125,0.14285714285714285
1,0.15,0.15384615384615385
1,0.175,0.15384615384615385
1,0.19999999999999998,0.07142857142857142
1,0.22499999999999998,0.2857142857142857
1,0.24999999999999997,0.2857142857142857
1,0.27499999999999997,0.23076923076923078
1,0.3,0.38461538461538464
1,0.325,0.45454545454545453
1,0.35000000000000003,0.42857142857142855
1,0.37500000000000006,0.23076923076923078
1,0.4000000000000001,0.35714285714285715
1,0.4250000000000001,0.3
1,0.4500000000000001,0.75
1,0.47500000000000014,0.25
1,0.5000000000000001,0.5
1,0.5250000000000001,0.6363636363636364
1,0.5500000000000002,0.4166666666666667
1,0.5750000000000002,0.25
1,0.6000000000000002,0.6666666666666666
1,0.6250000000000002,0.7142857142857143
1,0.6500000000000002,0.7142857142857143
1,0.6750000000000003,1
1,0.7000000000000003,0.4444444444444444
1,0.7250000000000003,0.6666666666666666
1,0.7500000000000003,0.8
1,0.7750000000000004,0.6666666666666666
1,0.8000000000000004,1
1,0.8250000000000004,1
1,0.8500000000000004,1
1,0.8750000000000004,1
1,0.9000000000000005,NaN
1,0.9250000000000005,1
1,0.9500000000000005,NaN
1,0.9750000000000005,NaN
10,0,0
10,0.025,0.04697986577181208
10,0.05,0.12162162162162163
10,0.07500000000000001,0.18791946308724833
10,0.1,0.16083916083916083
10,0.125,0.30985915492957744
10,0.15,0.21014492753623187
10,0.175,0.2605633802816901
10,0.19999999999999998,0.25
10,0.22499999999999998,0.3333333333333333
10,0.24999999999999997,0.38686131386861317
10,0.27499999999999997,0.39849624060150374
10,0.3,0.32575757575757575
10,0.325,0.34375
10,0.35000000000000003,0.4322033898305085
10,0.37500000000000006,0.5046728971962616
10,0.4000000000000001,0.5257731958762887
10,0.4250000000000001,0.6571428571428571
10,0.4500000000000001,0.5979381443298969
10,0.47500000000000014,0.6185567010309279
10,0.5000000000000001,0.7738095238095238
10,0.5250000000000001,0.7078651685393258
10,0.5500000000000002,0.7142857142857143
10,0.5750000000000002,0.7297297297297297
10,0.6000000000000002,0.918918918918919
10,0.6250000000000002,0.873015873015873
10,0.6500000000000002,0.9814814814814815
10,0.6750000000000003,0.9795918367346939
10,0.7000000000000003,0.98
10,0.7250000000000003,1
10,0.7500000000000003,1
10,0.7750000000000004,1
10,0.8000000000000004,1
10,0.8250000000000004,1
10,0.8500000000000004,1
10,0.8750000000000004,1
10,0.9000000000000005,0.9
10,0.9250000000000005,1
10,0.9500000000000005,1
10,0.9750000000000005,1
100,0,0
100,0.025,0.39779005524861877
100,0.05,0.6721915285451197
100,0.07500000000000001,0.8351254480286738
100,0.1,0.9014598540145985
100,0.125,0.9437386569872959
100,0.15,0.9781420765027322
100,0.175,0.983249581239531
100,0.19999999999999998,0.9946140035906643
100,0.22499999999999998,0.9963702359346642
100,0.24999999999999997,0.9964476021314387
100,0.27499999999999997,0.9981684981684982
100,0.3,0.9982608695652174
100,0.325,0.9983361064891847
100,0.35000000000000003,0.99812382739212
100,0.37500000000000006,1
100,0.4000000000000001,0.9982547993019197
100,0.4250000000000001,1
100,0.4500000000000001,1
100,0.47500000000000014,0.998062015503876
100,0.5000000000000001,0.9979716024340771
100,0.5250000000000001,1
100,0.5500000000000002,1
100,0.5750000000000002,0.9980916030534351
100,0.6000000000000002,1
100,0.6250000000000002,1
100,0.6500000000000002,1
100,0.6750000000000003,1
100,0.7000000000000003,1
100,0.7250000000000003,0.9975490196078431
100,0.7500000000000003,0.9973890339425587
100,0.7750000000000004,1
100,0.8000000000000004,1
100,0.8250000000000004,1
100,0.8500000000000004,1
100,0.8750000000000004,0.9943181818181818
100,0.9000000000000005,1
100,0.9250000000000005,1
100,0.9500000000000005,1
100,0.9750000000000005,1
109,0,0
109,0.025,0.40977443609022557
109,0.05,0.6801470588235294
109,0.07500000000000001,0.8456014362657092
109,0.1,0.9147727272727273
109,0.125,0.9410714285714286
109,0.15,0.9820466786355476
109,0.175,0.9873873873873874
109,0.19999999999999998,0.9842931937172775
109,0.22499999999999998,0.9964349376114082
109,0.24999999999999997,0.9981916817359855
109,0.27499999999999997,0.9982425307557118
109,0.3,0.9982142857142857
109,0.325,0.9962616822429906
109,0.35000000000000003,1
109,0.37500000000000006,0.9981378026070763
109,0.4000000000000001,0.9982425307557118
109,0.4250000000000001,1
109,0.4500000000000001,0.9980119284294234
109,0.47500000000000014,1
109,0.5000000000000001,0.9980988593155894
109,0.5250000000000001,1
109,0.5500000000000002,0.9980314960629921
109,0.5750000000000002,1
109,0.6000000000000002,0.998
109,0.6250000000000002,0.9981718464351006
109,0.6500000000000002,1
109,0.6750000000000003,1
109,0.7000000000000003,0.997946611909651
109,0.7250000000000003,1
109,0.7500000000000003,1
109,0.7750000000000004,1
109,0.8000000000000004,1
109,0.8250000000000004,1
109,0.8500000000000004,0.9962406015037594
109,0.8750000000000004,1
109,0.9000000000000005,1
109,0.9250000000000005,0.9915254237288136
109,0.9500000000000005,1
109,0.9750000000000005,0.9772727272727273
118,0,0
118,0.025,0.4540229885057471
118,0.05,0.6622889305816135
118,0.07500000000000001,0.8425925925925926
118,0.1,0.925
118,0.125,0.9468864468864469
118,0.15,0.9837837837837838
118,0.175,0.9818181818181818
118,0.19999999999999998,0.9946996466431095
118,0.22499999999999998,0.9981949458483754
118,0.24999999999999997,0.9963833634719711
118,0.27499999999999997,0.9981751824817519
118,0.3,0.9981718464351006
118,0.325,0.9981549815498155
118,0.35000000000000003,1
118,0.37500000000000006,1
118,0.4000000000000001,0.9981818181818182
118,0.4250000000000001,1
118,0.4500000000000001,1
118,0.47500000000000014,0.9979959919839679
118,0.5000000000000001,1
118,0.5250000000000001,1
118,0.5500000000000002,1
118,0.5750000000000002,0.9981412639405205
118,0.6000000000000002,0.9980506822612085
118,0.6250000000000002,1
118,0.6500000000000002,1
118,0.6750000000000003,1
118,0.7000000000000003,1
118,0.7250000000000003,0.998046875
118,0.7500000000000003,1
118,0.7750000000000004,1
118,0.8000000000000004,1
118,0.8250000000000004,1
118,0.8500000000000004,1
118,0.8750000000000004,0.9956140350877193
118,0.9000000000000005,1
118,0.9250000000000005,1
118,0.9500000000000005,1
118,0.9750000000000005,1
127,0,0
127,0.025,0.41634980988593157
127,0.05,0.6846011131725418
127,0.07500000000000001,0.8416206261510129
127,0.1,0.8978102189781022
127,0.125,0.95
127,0.15,0.9724770642201835
127,0.175,0.9888475836431226
127,0.19999999999999998,0.9927404718693285
127,0.22499999999999998,0.9980916030534351
127,0.24999999999999997,0.9982486865148862
127,0.27499999999999997,0.9964726631393298
127,0.3,0.9981884057971014
127,0.325,1
127,0.35000000000000003,0.9980694980694981
127,0.37500000000000006,0.9980842911877394
127,0.4000000000000001,0.9982547993019197
127,0.4250000000000001,1
127,0.4500000000000001,1
127,0.47500000000000014,1
127,0.5000000000000001,0.998165137614679
127,0.5250000000000001,0.998062015503876
127,0.5500000000000002,1
127,0.5750000000000002,0.9979633401221996
127,0.6000000000000002,1
127,0.6250000000000002,1
127,0.6500000000000002,1
127,0.6750000000000003,0.9981718464351006
127,0.7000000000000003,1
127,0.7250000000000003,1
127,0.7500000000000003,1
127,0.7750000000000004,0.9978540772532188
127,0.8000000000000004,0.9976359338061466
127,0.8250000000000004,1
127,0.8500000000000004,1
127,0.8750000000000004,1
127,0.9000000000000005,1
127,0.9250000000000005,1
127,0.9500000000000005,1
127,0.9750000000000005,1
136,0,0
136,0.025,0.46588693957115007
136,0.05,0.6851145038167938
136,0.07500000000000001,0.8412098298676749
136,0.1,0.8963636363636364
136,0.125,0.9471766848816029
136,0.15,0.9802158273381295
136,0.175,0.9851576994434137
136,0.19999999999999998,0.9929453262786596
136,0.22499999999999998,0.9928698752228164
136,0.24999999999999997,1
136,0.27499999999999997,0.9962476547842402
136,0.3,0.9981343283582089
136,0.325,1
136,0.35000000000000003,1
136,0.37500000000000006,1
136,0.4000000000000001,0.9981751824817519
136,0.4250000000000001,0.9980694980694981
136,0.4500000000000001,1
136,0.47500000000000014,1
136,0.5000000000000001,0.9981024667931688
136,0.5250000000000001,0.998015873015873
136,0.5500000000000002,0.9980430528375733
136,0.5750000000000002,0.9981167608286252
136,0.6000000000000002,1
136,0.6250000000000002,0.99812734082397
136,0.6500000000000002,1
136,0.6750000000000003,1
136,0.7000000000000003,0.9980842911877394
136,0.7250000000000003,1
136,0.7500000000000003,1
136,0.7750000000000004,0.997872340425532
136,0.8000000000000004,1
136,0.8250000000000004,1
136,0.8500000000000004,1
136,0.8750000000000004,0.99609375
136,0.9000000000000005,1
136,0.9250000000000005,0.9939024390243902
136,0.9500000000000005,1
136,0.9750000000000005,1
145,0,0
145,0.025,0.40625
145,0.05,0.6814671814671814
145,0.07500000000000001,0.8812615955473099
145,0.1,0.9216417910447762
145,0.125,0.9450757575757576
145,0.15,0.9644194756554307
145,0.175,0.9893048128342246
145,0.19999999999999998,0.990791896869245
145,0.22499999999999998,0.996268656716418
145,0.24999999999999997,0.9961977186311787
145,0.27499999999999997,0.994475138121547
145,0.3,0.9980879541108987
145,0.325,0.9961685823754789
145,0.35000000000000003,1
145,0.37500000000000006,0.9981981981981982
145,0.4000000000000001,1
145,0.4250000000000001,0.9980916030534351
145,0.4500000000000001,0.9981751824817519
145,0.47500000000000014,0.9980392156862745
145,0.5000000000000001,0.998046875
145,0.5250000000000001,0.99812734082397
145,0.5500000000000002,0.9980952380952381
145,0.5750000000000002,1
145,0.6000000000000002,0.9980582524271845
145,0.6250000000000002,0.998015873015873
145,0.6500000000000002,1
145,0.6750000000000003,1
145,0.7000000000000003,1
145,0.7250000000000003,0.9980916030534351
145,0.7500000000000003,1
145,0.7750000000000004,1
145,0.8000000000000004,1
145,0.8250000000000004,1
145,0.8500000000000004,0.9971830985915493
145,0.8750000000000004,0.9964912280701754
145,0.9000000000000005,1
145,0.9250000000000005,1
145,0.9500000000000005,0.9910714285714286
145,0.9750000000000005,1
154,0,0
154,0.025,0.4636542239685658
154,0.05,0.6590909090909091
154,0.07500000000000001,0.8245283018867925
154,0.1,0.911275415896488
154,0.125,0.9428044280442804
154,0.15,0.9854014598540146
154,0.175,0.97632058287796
154,0.19999999999999998,0.9981981981981982
154,0.22499999999999998,0.992818671454219
154,0.24999999999999997,0.9963570127504554
154,0.27499999999999997,0.99812382739212
154,0.3,0.998211091234347
154,0.325,0.9962962962962963
154,0.35000000000000003,0.9981412639405205
154,0.37500000000000006,1
154,0.4000000000000001,0.9982425307557118
154,0.4250000000000001,1
154,0.4500000000000001,0.99812734082397
154,0.47500000000000014,1
154,0.5000000000000001,0.9981549815498155
154,0.5250000000000001,0.998019801980198
154,0.5500000000000002,0.998046875
154,0.5750000000000002,0.99812382739212
154,0.6000000000000002,1
154,0.6250000000000002,1
154,0.6500000000000002,0.99822695035461
154,0.6750000000000003,1
154,0.7000000000000003,0.998015873015873
154,0.7250000000000003,1
154,0.7500000000000003,0.998
154,0.7750000000000004,1
154,0.8000000000000004,0.997979797979798
154,0.8250000000000004,1
154,0.8500000000000004,0.9973404255319149
154,0.8750000000000004,0.9968944099378882
154,0.9000000000000005,1
154,0.9250000000000005,1
154,0.9500000000000005,1
154,0.9750000000000005,1
163,0,0
163,0.025,0.45219123505976094
163,0.05,0.7055449330783938
163,0.07500000000000001,0.8308550185873605
163,0.1,0.915129151291513
163,0.125,0.9448669201520913
163,0.15,0.9759704251386322
163,0.175,0.987012987012987
163,0.19999999999999998,0.9981785063752276
163,0.22499999999999998,0.9945454545454545
163,0.24999999999999997,0.9945255474452555
163,0.27499999999999997,0.9963436928702011
163,0.3,0.9981684981684982
163,0.325,0.9980916030534351
163,0.35000000000000003,0.9981481481481481
163,0.37500000000000006,1
163,0.4000000000000001,1
163,0.4250000000000001,1
163,0.4500000000000001,0.9980916030534351
163,0.47500000000000014,1
163,0.5000000000000001,1
163,0.5250000000000001,1
163,0.5500000000000002,1
163,0.5750000000000002,0.9981024667931688
163,0.6000000000000002,1
163,0.6250000000000002,0.9980952380952381
163,0.6500000000000002,1
163,0.6750000000000003,1
163,0.7000000000000003,1
163,0.7250000000000003,1
163,0.7500000000000003,0.9981024667931688
163,0.7750000000000004,1
163,0.8000000000000004,1
163,0.8250000000000004,0.9975186104218362
163,0.8500000000000004,1
163,0.8750000000000004,1
163,0.9000000000000005,1
163,0.9250000000000005,1
163,0.9500000000000005,1
163,0.9750000000000005,1
172,0,0
172,0.025,0.44664031620553357
172,0.05,0.6978967495219885
172,0.07500000000000001,0.8301526717557252
172,0.1,0.9082397003745318
172,0.125,0.9449715370018975
172,0.15,0.975609756097561
172,0.175,0.9888268156424581
172,0.19999999999999998,0.9926470588235294
172,0.22499999999999998,0.9981343283582089
172,0.24999999999999997,0.9945155393053017
172,0.27499999999999997,0.9981412639405205
172,0.3,0.9962546816479401
172,0.325,0.9981412639405205
172,0.35000000000000003,0.998220640569395
172,0.37500000000000006,0.9981024667931688
172,0.4000000000000001,0.99812382739212
172,0.4250000000000001,1
172,0.4500000000000001,0.998019801980198
172,0.47500000000000014,1
172,0.5000000000000001,1
172,0.5250000000000001,0.9981203007518797
172,0.5500000000000002,1
172,0.5750000000000002,1
172,0.6000000000000002,1
172,0.6250000000000002,0.9979591836734694
172,0.6500000000000002,0.9980506822612085
172,0.6750000000000003,1
172,0.7000000000000003,0.9980276134122288
172,0.7250000000000003,1
172,0.7500000000000003,0.9980806142034548
172,0.7750000000000004,1
172,0.8000000000000004,1
172,0.8250000000000004,1
172,0.8500000000000004,1
172,0.8750000000000004,1
172,0.9000000000000005,1
172,0.9250000000000005,1
172,0.9500000000000005,1
172,0.9750000000000005,1
181,0,0
181,0.025,0.41365461847389556
181,0.05,0.6852589641434262
181,0.07500000000000001,0.8304093567251462
181,0.1,0.8757062146892656
181,0.125,0.9661016949152542
181,0.15,0.9689320388349515
181,0.175,0.9844961240310077
181,0.19999999999999998,0.996316758747698
181,0.22499999999999998,0.9962264150943396
181,0.24999999999999997,0.9981751824817519
181,0.27499999999999997,0.9980657640232108
181,0.3,0.9980314960629921
181,0.325,0.9980769230769231
181,0.35000000000000003,1
181,0.37500000000000006,0.9981060606060606
181,0.4000000000000001,0.9981447124304267
181,0.4250000000000001,0.9980582524271845
181,0.4500000000000001,1
181,0.47500000000000014,1
181,0.5000000000000001,1
181,0.5250000000000001,0.9981132075471698
181,0.5500000000000002,1
181,0.5750000000000002,0.9980879541108987
181,0.6000000000000002,0.9980506822612085
181,0.6250000000000002,1
181,0.6500000000000002,1
181,0.6750000000000003,1
181,0.7000000000000003,1
181,0.7250000000000003,0.9980952380952381
181,0.7500000000000003,1
181,0.7750000000000004,1
181,0.8000000000000004,0.9980237154150198
181,0.8250000000000004,1
181,0.8500000000000004,1
181,0.8750000000000004,1
181,0.9000000000000005,0.9961089494163424
181,0.9250000000000005,1
181,0.9500000000000005,1
181,0.9750000000000005,1
19,0,0
19,0.025,0.05226480836236934
19,0.05,0.13732394366197184
19,0.07500000000000001,0.22456140350877193
19,0.1,0.30604982206405695
19,0.125,0.3381818181818182
19,0.15,0.33214285714285713
19,0.175,0.40671641791044777
19,0.19999999999999998,0.43283582089552236
19,0.22499999999999998,0.44
19,0.24999999999999997,0.4581673306772908
19,0.27499999999999997,0.5396825396825397
19,0.3,0.5
19,0.325,0.5434782608695652
19,0.35000000000000003,0.547945205479452
19,0.37500000000000006,0.5858585858585859
19,0.4000000000000001,0.6384976525821596
19,0.4250000000000001,0.6847826086956522
19,0.4500000000000001,0.7472527472527473
19,0.47500000000000014,0.813953488372093
19,0.5000000000000001,0.8125
19,0.5250000000000001,0.9246575342465754
19,0.5500000000000002,0.9315068493150684
19,0.5750000000000002,0.9666666666666667
19,0.6000000000000002,1
19,0.6250000000000002,0.9548872180451128
19,0.6500000000000002,0.9905660377358491
19,0.6750000000000003,0.989010989010989
19,0.7000000000000003,0.9886363636363636
19,0.7250000000000003,1
19,0.7500000000000003,1
19,0.7750000000000004,0.9833333333333333
19,0.8000000000000004,1
19,0.8250000000000004,1
19,0.8500000000000004,1
19,0.8750000000000004,0.9777777777777777
19,0.9000000000000005,1
19,0.9250000000000005,1
19,0.9500000000000005,1
19,0.9750000000000005,1
190,0,0
190,0.025,0.48406374501992033
190,0.05,0.6764132553606238
190,0.07500000000000001,0.8346613545816733
190,0.1,0.9059040590405905
190,0.125,0.9323017408123792
190,0.15,0.9742647058823529
190,0.175,0.9885931558935361
190,0.19999999999999998,0.989010989010989
190,0.22499999999999998,1
190,0.24999999999999997,1
190,0.27499999999999997,1
190,0.3,1
190,0.325,0.9981060606060606
190,0.35000000000000003,1
190,0.37500000000000006,0.9981203007518797
190,0.4000000000000001,0.9981684981684982
190,0.4250000000000001,1
190,0.4500000000000001,0.9980314960629921
190,0.47500000000000014,1
190,0.5000000000000001,1
190,0.5250000000000001,1
190,0.5500000000000002,0.9979674796747967
190,0.5750000000000002,0.997907949790795
190,0.6000000000000002,1
190,0.6250000000000002,1
190,0.6500000000000002,0.9981308411214953
190,0.6750000000000003,1
190,0.7000000000000003,0.9980544747081712
190,0.7250000000000003,1
190,0.7500000000000003,1
190,0.7750000000000004,1
190,0.8000000000000004,1
190,0.8250000000000004,1
190,0.8500000000000004,1
190,0.8750000000000004,1
190,0.9000000000000005,1
190,0.9250000000000005,1
190,0.9500000000000005,1
190,0.9750000000000005,1
199,0,0
199,0.025,0.4431137724550898
199,0.05,0.6846153846153846
199,0.07500000000000001,0.8301158301158301
199,0.1,0.9053030303030303
199,0.125,0.9536178107606679
199,0.15,0.9793233082706767
199,0.175,0.9883495145631068
199,0.19999999999999998,0.9927667269439421
199,0.22499999999999998,0.992633517495396
199,0.24999999999999997,0.9981060606060606
199,0.27499999999999997,0.9981412639405205
199,0.3,0.9981060606060606
199,0.325,0.9980732177263969
199,0.35000000000000003,0.9981851179673321
199,0.37500000000000006,0.9981203007518797
199,0.4000000000000001,0.9980806142034548
199,0.4250000000000001,1
199,0.4500000000000001,1
199,0.47500000000000014,0.9980392156862745
199,0.5000000000000001,0.9979423868312757
199,0.5250000000000001,1
199,0.5500000000000002,1
199,0.5750000000000002,1
199,0.6000000000000002,1
199,0.6250000000000002,0.9980119284294234
199,0.6500000000000002,1
199,0.6750000000000003,1
199,0.7000000000000003,1
199,0.7250000000000003,1
199,0.7500000000000003,0.998019801980198
199,0.7750000000000004,0.9980916030534351
199,0.8000000000000004,1
199,0.8250000000000004,1
199,0.8500000000000004,0.9975062344139651
199,0.8750000000000004,1
199,0.9000000000000005,1
199,0.9250000000000005,1
199,0.9500000000000005,1
199,0.9750000000000005,1
28,0,0
28,0.025,0.06382978723404255
28,0.05,0.18396226415094338
28,0.07500000000000001,0.2733812949640288
28,0.1,0.3333333333333333
28,0.125,0.4074074074074074
28,0.15,0.4806201550387597
28,0.175,0.506426735218509
28,0.19999999999999998,0.53125
28,0.22499999999999998,0.5267379679144385
28,0.24999999999999997,0.5714285714285714
28,0.27499999999999997,0.6187683284457478
28,0.3,0.6407185628742516
28,0.325,0.6635514018691588
28,0.35000000000000003,0.7028753993610224
28,0.37500000000000006,0.7142857142857143
28,0.4000000000000001,0.7237762237762237
28,0.4250000000000001,0.7777777777777778
28,0.4500000000000001,0.8024691358024691
28,0.47500000000000014,0.9037656903765691
28,0.5000000000000001,0.8995983935742972
28,0.5250000000000001,0.958974358974359
28,0.5500000000000002,0.9447513812154696
28,0.5750000000000002,0.9693877551020408
28,0.6000000000000002,0.9881656804733728
28,0.6250000000000002,0.9935064935064936
28,0.6500000000000002,1
28,0.6750000000000003,1
28,0.7000000000000003,1
28,0.7250000000000003,0.9908256880733946
28,0.7500000000000003,1
28,0.7750000000000004,1
28,0.8000000000000004,0.9895833333333334
28,0.8250000000000004,1
28,0.8500000000000004,1
28,0.8750000000000004,0.9787234042553191
28,0.9000000000000005,1
28,0.9250000000000005,1
28,0.9500000000000005,1
28,0.9750000000000005,1
37,0,0
37,0.025,0.33516483516483514
37,0.05,0.5120593692022264
37,0.07500000000000001,0.5915221579961464
37,0.1,0.6712871287128713
37,0.125,0.7408906882591093
37,0.15,0.7515527950310559
37,0.175,0.7643312101910829
37,0.19999999999999998,0.7609649122807017
37,0.22499999999999998,0.7978260869565217
37,0.24999999999999997,0.7723004694835681
37,0.27499999999999997,0.7662650602409639
37,0.3,0.8135198135198135
37,0.325,0.7952127659574468
37,0.35000000000000003,0.7958115183246073
37,0.37500000000000006,0.8111111111111111
37,0.4000000000000001,0.8555858310626703
37,0.4250000000000001,0.8647798742138365
37,0.4500000000000001,0.8825396825396825
37,0.47500000000000014,0.9264214046822743
37,0.5000000000000001,0.9490909090909091
37,0.5250000000000001,0.9800796812749004
37,0.5500000000000002,0.9759036144578314
37,0.5750000000000002,0.9642857142857143
37,0.6000000000000002,0.9906542056074766
37,0.6250000000000002,0.9914893617021276
37,0.6500000000000002,0.9902439024390244
37,0.6750000000000003,0.9946236559139785
37,0.7000000000000003,1
37,0.7250000000000003,0.993103448275862
37,0.7500000000000003,1
37,0.7750000000000004,1
37,0.8000000000000004,0.9917355371900827
37,0.8250000000000004,1
37,0.8500000000000004,1
37,0.8750000000000004,1
37,0.9000000000000005,1
37,0.9250000000000005,1
37,0.9500000000000005,1
37,0.9750000000000005,0.9
46,0,0
46,0.025,0.42882882882882883
46,0.05,0.6963636363636364
46,0.07500000000000001,0.818018018018018
46,0.1,0.8996350364963503
46,0.125,0.9511754068716094
46,0.15,0.9595782073813708
46,0.175,0.987410071942446
46,0.19999999999999998,0.9876977152899824
46,0.22499999999999998,0.9926470588235294
46,0.24999999999999997,0.9846153846153847
46,0.27499999999999997,0.9828571428571429
46,0.3,0.9691358024691358
46,0.325,0.9609856262833676
46,0.35000000000000003,0.9730290456431535
46,0.37500000000000006,0.961038961038961
46,0.4000000000000001,0.9705215419501134
46,0.4250000000000001,0.9625
46,0.4500000000000001,0.9593301435406698
46,0.47500000000000014,0.9918918918918919
46,0.5000000000000001,0.9943820224719101
46,0.5250000000000001,0.9880952380952381
46,0.5500000000000002,1
46,0.5750000000000002,1
46,0.6000000000000002,1
46,0.6250000000000002,1
46,0.6500000000000002,0.9960474308300395
46,0.6750000000000003,1
46,0.7000000000000003,0.9954545454545455
46,0.7250000000000003,1
46,0.7500000000000003,1
46,0.7750000000000004,0.9933774834437086
46,0.8000000000000004,0.992
46,0.8250000000000004,1
46,0.8500000000000004,0.9921875
46,0.8750000000000004,1
46,0.9000000000000005,1
46,0.9250000000000005,1
46,0.9500000000000005,1
46,0.9750000000000005,1
55,0,0
55,0.025,0.455535390199637
55,0.05,0.7041742286751361
55,0.07500000000000001,0.825136612021858
55,0.1,0.916058394160584
55,0.125,0.9577205882352942
55,0.15,0.9777015437392796
55,0.175,0.9858906525573192
55,0.19999999999999998,0.9913644214162349
55,0.22499999999999998,0.9963702359346642
55,0.24999999999999997,0.9964349376114082
55,0.27499999999999997,0.9964912280701754
55,0.3,0.9964221824686941
55,0.325,0.9964912280701754
55,0.35000000000000003,0.9981024667931688
55,0.37500000000000006,0.9960552268244576
55,0.4000000000000001,0.9899193548387096
55,0.4250000000000001,0.9865470852017937
55,0.4500000000000001,0.9933481152993349
55,0.47500000000000014,0.9910714285714286
55,0.5000000000000001,1
55,0.5250000000000001,0.9975062344139651
55,0.5500000000000002,1
55,0.5750000000000002,1
55,0.6000000000000002,0.996996996996997
55,0.6250000000000002,0.9970414201183432
55,0.6500000000000002,0.9965870307167235
55,0.6750000000000003,1
55,0.7000000000000003,1
55,0.7250000000000003,1
55,0.7500000000000003,1
55,0.7750000000000004,1
55,0.8000000000000004,0.9931506849315068
55,0.8250000000000004,1
55,0.8500000000000004,1
55,0.8750000000000004,1
55,0.9000000000000005,0.9864864864864865
55,0.9250000000000005,1
55,0.9500000000000005,1
55,0.9750000000000005,1
64,0,0
64,0.025,0.42429906542056073
64,0.05,0.6734317343173432
64,0.07500000000000001,0.8194690265486726
64,0.1,0.8994515539305301
64,0.125,0.9459962756052142
64,0.15,0.9736379613356766
64,0.175,0.9875886524822695
64,0.19999999999999998,0.991304347826087
64,0.22499999999999998,0.9981718464351006
64,0.24999999999999997,1
64,0.27499999999999997,0.992818671454219
64,0.3,0.9981851179673321
64,0.325,0.9981981981981982
64,0.35000000000000003,1
64,0.37500000000000006,0.9981949458483754
64,0.4000000000000001,0.9981751824817519
64,0.4250000000000001,0.9981981981981982
64,0.4500000000000001,1
64,0.47500000000000014,1
64,0.5000000000000001,0.998015873015873
64,0.5250000000000001,0.997872340425532
64,0.5500000000000002,0.9977426636568849
64,0.5750000000000002,1
64,0.6000000000000002,1
64,0.6250000000000002,1
64,0.6500000000000002,1
64,0.6750000000000003,0.9970326409495549
64,0.7000000000000003,1
64,0.7250000000000003,0.9963768115942029
64,0.7500000000000003,0.9957805907172996
64,0.7750000000000004,0.9954128440366973
64,0.8000000000000004,1
64,0.8250000000000004,1
64,0.8500000000000004,1
64,0.8750000000000004,1
64,0.9000000000000005,1
64,0.9250000000000005,1
64,0.9500000000000005,1
64,0.9750000000000005,1
73,0,0
73,0.025,0.4729981378026071
73,0.05,0.7093235831809872
73,0.07500000000000001,0.8366247755834829
73,0.1,0.9157706093189965
73,0.125,0.9683098591549296
73,0.15,0.9768270944741533
73,0.175,0.9888888888888889
73,0.19999999999999998,0.992818671454219
73,0.22499999999999998,0.9930675909878682
73,0.24999999999999997,0.9964349376114082
73,0.27499999999999997,0.9982078853046595
73,0.3,0.9981949458483754
73,0.325,0.9982517482517482
73,0.35000000000000003,0.9981684981684982
73,0.37500000000000006,0.9982698961937716
73,0.4000000000000001,1
73,0.4250000000000001,1
73,0.4500000000000001,0.9981447124304267
73,0.47500000000000014,0.9980842911877394
73,0.5000000000000001,0.9981060606060606
73,0.5250000000000001,0.9981851179673321
73,0.5500000000000002,1
73,0.5750000000000002,0.9979633401221996
73,0.6000000000000002,0.9979296066252588
73,0.6250000000000002,1
73,0.6500000000000002,0.9975
73,0.6750000000000003,0.9972972972972973
73,0.7000000000000003,0.997093023255814
73,0.7250000000000003,1
73,0.7500000000000003,0.9963636363636363
73,0.7750000000000004,1
73,0.8000000000000004,0.9948979591836735
73,0.8250000000000004,0.9949748743718593
73,0.8500000000000004,1
73,0.8750000000000004,1
73,0.9000000000000005,1
73,0.9250000000000005,1
73,0.9500000000000005,1
73,0.9750000000000005,0.9705882352941176
82,0,0
82,0.025,0.4076782449725777
82,0.05,0.7109090909090909
82,0.07500000000000001,0.7978910369068541
82,0.1,0.8963636363636364
82,0.125,0.9533213644524237
82,0.15,0.9631578947368421
82,0.175,0.9856373429084381
82,0.19999999999999998,0.9878260869565217
82,0.22499999999999998,0.9945054945054945
82,0.24999999999999997,0.9964539007092199
82,0.27499999999999997,0.9982608695652174
82,0.3,1
82,0.325,0.9982238010657194
82,0.35000000000000003,0.9982174688057041
82,0.37500000000000006,1
82,0.4000000000000001,1
82,0.4250000000000001,0.9980988593155894
82,0.4500000000000001,1
82,0.47500000000000014,0.9980769230769231
82,0.5000000000000001,0.9980430528375733
82,0.5250000000000001,1
82,0.5500000000000002,0.9980988593155894
82,0.5750000000000002,1
82,0.6000000000000002,1
82,0.6250000000000002,0.9978260869565218
82,0.6500000000000002,1
82,0.6750000000000003,1
82,0.7000000000000003,1
82,0.7250000000000003,1
82,0.7500000000000003,1
82,0.7750000000000004,1
82,0.8000000000000004,1
82,0.8250000000000004,1
82,0.8500000000000004,1
82,0.8750000000000004,1
82,0.9000000000000005,1
82,0.9250000000000005,1
82,0.9500000000000005,1
82,0.9750000000000005,1
91,0,0
91,0.025,0.46715328467153283
91,0.05,0.6789667896678967
91,0.07500000000000001,0.8311926605504587
91,0.1,0.8994614003590664
91,0.125,0.9397810218978102
91,0.15,0.9836065573770492
91,0.175,0.9843478260869565
91,0.19999999999999998,0.9947460595446584
91,0.22499999999999998,0.9947643979057592
91,0.24999999999999997,0.9982608695652174
91,0.27499999999999997,0.9982300884955753
91,0.3,0.9964285714285714
91,0.325,1
91,0.35000000000000003,1
91,0.37500000000000006,0.9982300884955753
91,0.4000000000000001,1
91,0.4250000000000001,0.998109640831758
91,0.4500000000000001,0.9981515711645101
91,0.47500000000000014,0.9980506822612085
91,0.5000000000000001,1
91,0.5250000000000001,0.9980916030534351
91,0.5500000000000002,1
91,0.5750000000000002,0.9980952380952381
91,0.6000000000000002,0.99800796812749
91,0.6250000000000002,0.9980916030534351
91,0.6500000000000002,0.9981378026070763
91,0.6750000000000003,0.9980119284294234
91,0.7000000000000003,1
91,0.7250000000000003,0.9975550122249389
91,0.7500000000000003,1
91,0.7750000000000004,1
91,0.8000000000000004,1
91,0.8250000000000004,1
91,0.8500000000000004,1
91,0.8750000000000004,0.994475138121547
91,0.9000000000000005,1
91,0.9250000000000005,1
91,0.9500000000000005,1
91,0.9750000000000005,1
