<mxfile host="app.diagrams.net" modified="2023-05-03T12:47:33.816Z" agent="Mozilla/5.0 (Macintosh; Intel Mac OS X 10_15_7) AppleWebKit/537.36 (KHTML, like Gecko) Chrome/112.0.0.0 Safari/537.36" etag="KD21MZ2S8-_6rufmpkPD" version="21.2.4" type="device">
  <diagram name="Page-1" id="wIp573Buk7xVW1AgnKpY">
    <mxGraphModel dx="1892" dy="1090" grid="1" gridSize="10" guides="1" tooltips="1" connect="1" arrows="1" fold="1" page="1" pageScale="1" pageWidth="827" pageHeight="1169" math="0" shadow="0">
      <root>
        <mxCell id="0" />
        <mxCell id="1" parent="0" />
        <mxCell id="DtkK7vVMwpk1N3uGZUYi-1" value="Master" style="rounded=0;whiteSpace=wrap;html=1;" parent="1" vertex="1">
          <mxGeometry x="10" y="60" width="120" height="60" as="geometry" />
        </mxCell>
        <mxCell id="DtkK7vVMwpk1N3uGZUYi-2" value="Node" style="rounded=0;whiteSpace=wrap;html=1;" parent="1" vertex="1">
          <mxGeometry x="10" y="150" width="120" height="60" as="geometry" />
        </mxCell>
        <mxCell id="DtkK7vVMwpk1N3uGZUYi-3" value="" style="endArrow=none;html=1;rounded=0;strokeColor=#CFCFCF;" parent="1" source="DtkK7vVMwpk1N3uGZUYi-2" edge="1">
          <mxGeometry width="50" height="50" relative="1" as="geometry">
            <mxPoint x="390" y="240" as="sourcePoint" />
            <mxPoint x="1210" y="180" as="targetPoint" />
          </mxGeometry>
        </mxCell>
        <mxCell id="DtkK7vVMwpk1N3uGZUYi-4" value="" style="endArrow=none;html=1;rounded=0;strokeColor=#CFCFCF;" parent="1" source="DtkK7vVMwpk1N3uGZUYi-1" edge="1">
          <mxGeometry width="50" height="50" relative="1" as="geometry">
            <mxPoint x="130" y="89.70999999999998" as="sourcePoint" />
            <mxPoint x="1210" y="90" as="targetPoint" />
          </mxGeometry>
        </mxCell>
        <mxCell id="DtkK7vVMwpk1N3uGZUYi-12" value="" style="group" parent="1" vertex="1" connectable="0">
          <mxGeometry x="160" y="60" width="120" height="60" as="geometry" />
        </mxCell>
        <mxCell id="DtkK7vVMwpk1N3uGZUYi-5" value="rf_dmx_t" style="rounded=0;whiteSpace=wrap;html=1;fontFamily=Courier New;fontStyle=1" parent="DtkK7vVMwpk1N3uGZUYi-12" vertex="1">
          <mxGeometry width="120" height="20" as="geometry" />
        </mxCell>
        <mxCell id="DtkK7vVMwpk1N3uGZUYi-6" value="seq: 0" style="rounded=0;whiteSpace=wrap;html=1;fontColor=#969696;" parent="DtkK7vVMwpk1N3uGZUYi-12" vertex="1">
          <mxGeometry y="20" width="60" height="20" as="geometry" />
        </mxCell>
        <mxCell id="DtkK7vVMwpk1N3uGZUYi-7" value="off: 0" style="rounded=0;whiteSpace=wrap;html=1;fontColor=#969696;" parent="DtkK7vVMwpk1N3uGZUYi-12" vertex="1">
          <mxGeometry x="60" y="20" width="60" height="20" as="geometry" />
        </mxCell>
        <mxCell id="DtkK7vVMwpk1N3uGZUYi-8" value="S" style="rounded=0;whiteSpace=wrap;html=1;fillColor=#ffe6cc;strokeColor=#d79b00;" parent="DtkK7vVMwpk1N3uGZUYi-12" vertex="1">
          <mxGeometry y="40" width="30" height="20" as="geometry" />
        </mxCell>
        <mxCell id="DtkK7vVMwpk1N3uGZUYi-9" value="C" style="rounded=0;whiteSpace=wrap;html=1;fontColor=#333333;fillColor=#f5f5f5;strokeColor=#666666;" parent="DtkK7vVMwpk1N3uGZUYi-12" vertex="1">
          <mxGeometry x="30" y="40" width="30" height="20" as="geometry" />
        </mxCell>
        <mxCell id="DtkK7vVMwpk1N3uGZUYi-13" style="rounded=0;orthogonalLoop=1;jettySize=auto;html=1;exitX=1;exitY=1;exitDx=0;exitDy=0;" parent="DtkK7vVMwpk1N3uGZUYi-12" source="DtkK7vVMwpk1N3uGZUYi-11" edge="1">
          <mxGeometry relative="1" as="geometry">
            <mxPoint x="190" y="120" as="targetPoint" />
          </mxGeometry>
        </mxCell>
        <mxCell id="DtkK7vVMwpk1N3uGZUYi-10" value="T" style="rounded=0;whiteSpace=wrap;html=1;fillColor=#ffe6cc;strokeColor=#d79b00;" parent="DtkK7vVMwpk1N3uGZUYi-12" vertex="1">
          <mxGeometry x="60" y="40" width="30" height="20" as="geometry" />
        </mxCell>
        <mxCell id="DtkK7vVMwpk1N3uGZUYi-11" value="R" style="rounded=0;whiteSpace=wrap;html=1;fontColor=#333333;fillColor=#f5f5f5;strokeColor=#666666;" parent="DtkK7vVMwpk1N3uGZUYi-12" vertex="1">
          <mxGeometry x="90" y="40" width="30" height="20" as="geometry" />
        </mxCell>
        <mxCell id="DtkK7vVMwpk1N3uGZUYi-14" value="" style="group" parent="1" vertex="1" connectable="0">
          <mxGeometry x="320" y="60" width="120" height="60" as="geometry" />
        </mxCell>
        <mxCell id="DtkK7vVMwpk1N3uGZUYi-15" value="rf_dmx_t" style="rounded=0;whiteSpace=wrap;html=1;fontFamily=Courier New;fontStyle=1" parent="DtkK7vVMwpk1N3uGZUYi-14" vertex="1">
          <mxGeometry width="120" height="20" as="geometry" />
        </mxCell>
        <mxCell id="DtkK7vVMwpk1N3uGZUYi-16" value="seq: 1" style="rounded=0;whiteSpace=wrap;html=1;fontColor=#969696;" parent="DtkK7vVMwpk1N3uGZUYi-14" vertex="1">
          <mxGeometry y="20" width="60" height="20" as="geometry" />
        </mxCell>
        <mxCell id="DtkK7vVMwpk1N3uGZUYi-17" value="off: 0" style="rounded=0;whiteSpace=wrap;html=1;fontColor=#969696;" parent="DtkK7vVMwpk1N3uGZUYi-14" vertex="1">
          <mxGeometry x="60" y="20" width="60" height="20" as="geometry" />
        </mxCell>
        <mxCell id="DtkK7vVMwpk1N3uGZUYi-18" value="S" style="rounded=0;whiteSpace=wrap;html=1;fillColor=#ffe6cc;strokeColor=#d79b00;" parent="DtkK7vVMwpk1N3uGZUYi-14" vertex="1">
          <mxGeometry y="40" width="30" height="20" as="geometry" />
        </mxCell>
        <mxCell id="DtkK7vVMwpk1N3uGZUYi-19" value="C" style="rounded=0;whiteSpace=wrap;html=1;fontColor=#333333;fillColor=#f5f5f5;strokeColor=#666666;" parent="DtkK7vVMwpk1N3uGZUYi-14" vertex="1">
          <mxGeometry x="30" y="40" width="30" height="20" as="geometry" />
        </mxCell>
        <mxCell id="DtkK7vVMwpk1N3uGZUYi-21" value="T" style="rounded=0;whiteSpace=wrap;html=1;fillColor=#ffe6cc;strokeColor=#d79b00;" parent="DtkK7vVMwpk1N3uGZUYi-14" vertex="1">
          <mxGeometry x="60" y="40" width="30" height="20" as="geometry" />
        </mxCell>
        <mxCell id="DtkK7vVMwpk1N3uGZUYi-22" value="R" style="rounded=0;whiteSpace=wrap;html=1;fontColor=#333333;fillColor=#f5f5f5;strokeColor=#666666;" parent="DtkK7vVMwpk1N3uGZUYi-14" vertex="1">
          <mxGeometry x="90" y="40" width="30" height="20" as="geometry" />
        </mxCell>
        <mxCell id="DtkK7vVMwpk1N3uGZUYi-23" value="" style="group" parent="1" vertex="1" connectable="0">
          <mxGeometry x="480" y="60" width="120" height="60" as="geometry" />
        </mxCell>
        <mxCell id="DtkK7vVMwpk1N3uGZUYi-24" value="rf_dmx_t" style="rounded=0;whiteSpace=wrap;html=1;fontFamily=Courier New;fontStyle=1" parent="DtkK7vVMwpk1N3uGZUYi-23" vertex="1">
          <mxGeometry width="120" height="20" as="geometry" />
        </mxCell>
        <mxCell id="DtkK7vVMwpk1N3uGZUYi-25" value="seq: 2" style="rounded=0;whiteSpace=wrap;html=1;fontColor=#969696;" parent="DtkK7vVMwpk1N3uGZUYi-23" vertex="1">
          <mxGeometry y="20" width="60" height="20" as="geometry" />
        </mxCell>
        <mxCell id="DtkK7vVMwpk1N3uGZUYi-26" value="off: 0" style="rounded=0;whiteSpace=wrap;html=1;fontColor=#969696;" parent="DtkK7vVMwpk1N3uGZUYi-23" vertex="1">
          <mxGeometry x="60" y="20" width="60" height="20" as="geometry" />
        </mxCell>
        <mxCell id="DtkK7vVMwpk1N3uGZUYi-27" value="S" style="rounded=0;whiteSpace=wrap;html=1;fillColor=#ffe6cc;strokeColor=#d79b00;" parent="DtkK7vVMwpk1N3uGZUYi-23" vertex="1">
          <mxGeometry y="40" width="30" height="20" as="geometry" />
        </mxCell>
        <mxCell id="DtkK7vVMwpk1N3uGZUYi-28" value="C" style="rounded=0;whiteSpace=wrap;html=1;fontColor=#333333;fillColor=#f5f5f5;strokeColor=#666666;" parent="DtkK7vVMwpk1N3uGZUYi-23" vertex="1">
          <mxGeometry x="30" y="40" width="30" height="20" as="geometry" />
        </mxCell>
        <mxCell id="DtkK7vVMwpk1N3uGZUYi-29" style="rounded=0;orthogonalLoop=1;jettySize=auto;html=1;exitX=1;exitY=1;exitDx=0;exitDy=0;" parent="DtkK7vVMwpk1N3uGZUYi-23" source="DtkK7vVMwpk1N3uGZUYi-31" edge="1">
          <mxGeometry relative="1" as="geometry">
            <mxPoint x="190" y="120" as="targetPoint" />
          </mxGeometry>
        </mxCell>
        <mxCell id="DtkK7vVMwpk1N3uGZUYi-30" value="T" style="rounded=0;whiteSpace=wrap;html=1;fillColor=#ffe6cc;strokeColor=#d79b00;" parent="DtkK7vVMwpk1N3uGZUYi-23" vertex="1">
          <mxGeometry x="60" y="40" width="30" height="20" as="geometry" />
        </mxCell>
        <mxCell id="DtkK7vVMwpk1N3uGZUYi-31" value="R" style="rounded=0;whiteSpace=wrap;html=1;fontColor=#333333;fillColor=#f5f5f5;strokeColor=#666666;" parent="DtkK7vVMwpk1N3uGZUYi-23" vertex="1">
          <mxGeometry x="90" y="40" width="30" height="20" as="geometry" />
        </mxCell>
        <mxCell id="DtkK7vVMwpk1N3uGZUYi-32" value="" style="shape=image;html=1;verticalAlign=top;verticalLabelPosition=bottom;labelBackgroundColor=#ffffff;imageAspect=0;aspect=fixed;image=https://cdn0.iconfinder.com/data/icons/evericons-16px/16/x-128.png" parent="1" vertex="1">
          <mxGeometry x="460" y="140" width="20" height="20" as="geometry" />
        </mxCell>
        <mxCell id="DtkK7vVMwpk1N3uGZUYi-20" style="rounded=0;orthogonalLoop=1;jettySize=auto;html=1;exitX=1;exitY=1;exitDx=0;exitDy=0;entryX=0;entryY=0;entryDx=0;entryDy=0;" parent="1" source="DtkK7vVMwpk1N3uGZUYi-22" target="DtkK7vVMwpk1N3uGZUYi-32" edge="1">
          <mxGeometry relative="1" as="geometry">
            <mxPoint x="510" y="180" as="targetPoint" />
          </mxGeometry>
        </mxCell>
        <mxCell id="DtkK7vVMwpk1N3uGZUYi-35" style="edgeStyle=orthogonalEdgeStyle;rounded=0;orthogonalLoop=1;jettySize=auto;html=1;exitX=0.25;exitY=0;exitDx=0;exitDy=0;curved=1;strokeColor=#FF99FF;" parent="1" source="DtkK7vVMwpk1N3uGZUYi-34" edge="1">
          <mxGeometry relative="1" as="geometry">
            <mxPoint x="670" y="180" as="targetPoint" />
          </mxGeometry>
        </mxCell>
        <mxCell id="DtkK7vVMwpk1N3uGZUYi-34" value="&lt;h1 style=&quot;font-size: 17px;&quot;&gt;&lt;font style=&quot;font-size: 17px;&quot;&gt;Loss&lt;/font&gt;&lt;/h1&gt;&lt;p style=&quot;font-size: 17px;&quot;&gt;Loss is identified, but as next packet has S flag, no resend is requested&lt;br style=&quot;font-size: 17px;&quot;&gt;&lt;/p&gt;" style="text;html=1;strokeColor=none;fillColor=none;spacing=5;spacingTop=-20;whiteSpace=wrap;overflow=hidden;rounded=0;fontSize=17;" parent="1" vertex="1">
          <mxGeometry x="735" y="250" width="205" height="100" as="geometry" />
        </mxCell>
        <mxCell id="DtkK7vVMwpk1N3uGZUYi-36" value="Master" style="rounded=0;whiteSpace=wrap;html=1;" parent="1" vertex="1">
          <mxGeometry x="10" y="540" width="120" height="60" as="geometry" />
        </mxCell>
        <mxCell id="DtkK7vVMwpk1N3uGZUYi-37" value="Node" style="rounded=0;whiteSpace=wrap;html=1;" parent="1" vertex="1">
          <mxGeometry x="10" y="630" width="120" height="60" as="geometry" />
        </mxCell>
        <mxCell id="DtkK7vVMwpk1N3uGZUYi-38" value="" style="endArrow=none;html=1;rounded=0;strokeColor=#CFCFCF;" parent="1" source="DtkK7vVMwpk1N3uGZUYi-37" edge="1">
          <mxGeometry width="50" height="50" relative="1" as="geometry">
            <mxPoint x="390" y="720" as="sourcePoint" />
            <mxPoint x="1210" y="660" as="targetPoint" />
          </mxGeometry>
        </mxCell>
        <mxCell id="DtkK7vVMwpk1N3uGZUYi-39" value="" style="endArrow=none;html=1;rounded=0;strokeColor=#CFCFCF;" parent="1" source="DtkK7vVMwpk1N3uGZUYi-36" edge="1">
          <mxGeometry width="50" height="50" relative="1" as="geometry">
            <mxPoint x="130" y="569.71" as="sourcePoint" />
            <mxPoint x="1210" y="570" as="targetPoint" />
          </mxGeometry>
        </mxCell>
        <mxCell id="DtkK7vVMwpk1N3uGZUYi-40" value="" style="group" parent="1" vertex="1" connectable="0">
          <mxGeometry x="160" y="540" width="120" height="60" as="geometry" />
        </mxCell>
        <mxCell id="DtkK7vVMwpk1N3uGZUYi-41" value="rf_dmx_t" style="rounded=0;whiteSpace=wrap;html=1;fontFamily=Courier New;fontStyle=1" parent="DtkK7vVMwpk1N3uGZUYi-40" vertex="1">
          <mxGeometry width="120" height="20" as="geometry" />
        </mxCell>
        <mxCell id="DtkK7vVMwpk1N3uGZUYi-42" value="seq: 0" style="rounded=0;whiteSpace=wrap;html=1;fontColor=#969696;" parent="DtkK7vVMwpk1N3uGZUYi-40" vertex="1">
          <mxGeometry y="20" width="60" height="20" as="geometry" />
        </mxCell>
        <mxCell id="DtkK7vVMwpk1N3uGZUYi-43" value="off: 0" style="rounded=0;whiteSpace=wrap;html=1;fontColor=#969696;" parent="DtkK7vVMwpk1N3uGZUYi-40" vertex="1">
          <mxGeometry x="60" y="20" width="60" height="20" as="geometry" />
        </mxCell>
        <mxCell id="DtkK7vVMwpk1N3uGZUYi-44" value="S" style="rounded=0;whiteSpace=wrap;html=1;fillColor=#ffe6cc;strokeColor=#d79b00;" parent="DtkK7vVMwpk1N3uGZUYi-40" vertex="1">
          <mxGeometry y="40" width="30" height="20" as="geometry" />
        </mxCell>
        <mxCell id="DtkK7vVMwpk1N3uGZUYi-45" value="C" style="rounded=0;whiteSpace=wrap;html=1;fontColor=#333333;fillColor=#f5f5f5;strokeColor=#666666;" parent="DtkK7vVMwpk1N3uGZUYi-40" vertex="1">
          <mxGeometry x="30" y="40" width="30" height="20" as="geometry" />
        </mxCell>
        <mxCell id="DtkK7vVMwpk1N3uGZUYi-46" style="rounded=0;orthogonalLoop=1;jettySize=auto;html=1;exitX=1;exitY=1;exitDx=0;exitDy=0;" parent="DtkK7vVMwpk1N3uGZUYi-40" source="DtkK7vVMwpk1N3uGZUYi-48" edge="1">
          <mxGeometry relative="1" as="geometry">
            <mxPoint x="190" y="120" as="targetPoint" />
          </mxGeometry>
        </mxCell>
        <mxCell id="DtkK7vVMwpk1N3uGZUYi-47" value="T" style="rounded=0;whiteSpace=wrap;html=1;fillColor=#f5f5f5;strokeColor=#666666;fontColor=#333333;" parent="DtkK7vVMwpk1N3uGZUYi-40" vertex="1">
          <mxGeometry x="60" y="40" width="30" height="20" as="geometry" />
        </mxCell>
        <mxCell id="DtkK7vVMwpk1N3uGZUYi-48" value="R" style="rounded=0;whiteSpace=wrap;html=1;fontColor=#333333;fillColor=#f5f5f5;strokeColor=#666666;" parent="DtkK7vVMwpk1N3uGZUYi-40" vertex="1">
          <mxGeometry x="90" y="40" width="30" height="20" as="geometry" />
        </mxCell>
        <mxCell id="DtkK7vVMwpk1N3uGZUYi-49" value="" style="group" parent="1" vertex="1" connectable="0">
          <mxGeometry x="320" y="540" width="120" height="60" as="geometry" />
        </mxCell>
        <mxCell id="DtkK7vVMwpk1N3uGZUYi-50" value="rf_dmx_t" style="rounded=0;whiteSpace=wrap;html=1;fontFamily=Courier New;fontStyle=1" parent="DtkK7vVMwpk1N3uGZUYi-49" vertex="1">
          <mxGeometry width="120" height="20" as="geometry" />
        </mxCell>
        <mxCell id="DtkK7vVMwpk1N3uGZUYi-51" value="seq: 1" style="rounded=0;whiteSpace=wrap;html=1;fontColor=#969696;" parent="DtkK7vVMwpk1N3uGZUYi-49" vertex="1">
          <mxGeometry y="20" width="60" height="20" as="geometry" />
        </mxCell>
        <mxCell id="DtkK7vVMwpk1N3uGZUYi-52" value="off: 1" style="rounded=0;whiteSpace=wrap;html=1;fontColor=#969696;" parent="DtkK7vVMwpk1N3uGZUYi-49" vertex="1">
          <mxGeometry x="60" y="20" width="60" height="20" as="geometry" />
        </mxCell>
        <mxCell id="DtkK7vVMwpk1N3uGZUYi-53" value="S" style="rounded=0;whiteSpace=wrap;html=1;fillColor=#f5f5f5;strokeColor=#666666;fontColor=#333333;" parent="DtkK7vVMwpk1N3uGZUYi-49" vertex="1">
          <mxGeometry y="40" width="30" height="20" as="geometry" />
        </mxCell>
        <mxCell id="DtkK7vVMwpk1N3uGZUYi-54" value="C" style="rounded=0;whiteSpace=wrap;html=1;fillColor=#ffe6cc;strokeColor=#d79b00;" parent="DtkK7vVMwpk1N3uGZUYi-49" vertex="1">
          <mxGeometry x="30" y="40" width="30" height="20" as="geometry" />
        </mxCell>
        <mxCell id="DtkK7vVMwpk1N3uGZUYi-55" value="T" style="rounded=0;whiteSpace=wrap;html=1;fillColor=#f5f5f5;strokeColor=#666666;fontColor=#333333;" parent="DtkK7vVMwpk1N3uGZUYi-49" vertex="1">
          <mxGeometry x="60" y="40" width="30" height="20" as="geometry" />
        </mxCell>
        <mxCell id="DtkK7vVMwpk1N3uGZUYi-56" value="R" style="rounded=0;whiteSpace=wrap;html=1;fontColor=#333333;fillColor=#f5f5f5;strokeColor=#666666;" parent="DtkK7vVMwpk1N3uGZUYi-49" vertex="1">
          <mxGeometry x="90" y="40" width="30" height="20" as="geometry" />
        </mxCell>
        <mxCell id="DtkK7vVMwpk1N3uGZUYi-57" value="" style="group" parent="1" vertex="1" connectable="0">
          <mxGeometry x="480" y="540" width="120" height="60" as="geometry" />
        </mxCell>
        <mxCell id="DtkK7vVMwpk1N3uGZUYi-58" value="rf_dmx_t" style="rounded=0;whiteSpace=wrap;html=1;fontFamily=Courier New;fontStyle=1" parent="DtkK7vVMwpk1N3uGZUYi-57" vertex="1">
          <mxGeometry width="120" height="20" as="geometry" />
        </mxCell>
        <mxCell id="DtkK7vVMwpk1N3uGZUYi-59" value="seq: 2" style="rounded=0;whiteSpace=wrap;html=1;fontColor=#969696;" parent="DtkK7vVMwpk1N3uGZUYi-57" vertex="1">
          <mxGeometry y="20" width="60" height="20" as="geometry" />
        </mxCell>
        <mxCell id="DtkK7vVMwpk1N3uGZUYi-60" value="off: 2" style="rounded=0;whiteSpace=wrap;html=1;fontColor=#969696;" parent="DtkK7vVMwpk1N3uGZUYi-57" vertex="1">
          <mxGeometry x="60" y="20" width="60" height="20" as="geometry" />
        </mxCell>
        <mxCell id="DtkK7vVMwpk1N3uGZUYi-61" value="S" style="rounded=0;whiteSpace=wrap;html=1;fillColor=#f5f5f5;strokeColor=#666666;fontColor=#333333;" parent="DtkK7vVMwpk1N3uGZUYi-57" vertex="1">
          <mxGeometry y="40" width="30" height="20" as="geometry" />
        </mxCell>
        <mxCell id="DtkK7vVMwpk1N3uGZUYi-62" value="C" style="rounded=0;whiteSpace=wrap;html=1;fontColor=#333333;fillColor=#f5f5f5;strokeColor=#666666;" parent="DtkK7vVMwpk1N3uGZUYi-57" vertex="1">
          <mxGeometry x="30" y="40" width="30" height="20" as="geometry" />
        </mxCell>
        <mxCell id="DtkK7vVMwpk1N3uGZUYi-63" style="rounded=0;orthogonalLoop=1;jettySize=auto;html=1;exitX=1;exitY=1;exitDx=0;exitDy=0;" parent="DtkK7vVMwpk1N3uGZUYi-57" source="DtkK7vVMwpk1N3uGZUYi-65" edge="1">
          <mxGeometry relative="1" as="geometry">
            <mxPoint x="190" y="120" as="targetPoint" />
          </mxGeometry>
        </mxCell>
        <mxCell id="DtkK7vVMwpk1N3uGZUYi-64" value="T" style="rounded=0;whiteSpace=wrap;html=1;fillColor=#ffe6cc;strokeColor=#d79b00;" parent="DtkK7vVMwpk1N3uGZUYi-57" vertex="1">
          <mxGeometry x="60" y="40" width="30" height="20" as="geometry" />
        </mxCell>
        <mxCell id="DtkK7vVMwpk1N3uGZUYi-65" value="R" style="rounded=0;whiteSpace=wrap;html=1;fontColor=#333333;fillColor=#f5f5f5;strokeColor=#666666;" parent="DtkK7vVMwpk1N3uGZUYi-57" vertex="1">
          <mxGeometry x="90" y="40" width="30" height="20" as="geometry" />
        </mxCell>
        <mxCell id="DtkK7vVMwpk1N3uGZUYi-66" value="" style="shape=image;html=1;verticalAlign=top;verticalLabelPosition=bottom;labelBackgroundColor=#ffffff;imageAspect=0;aspect=fixed;image=https://cdn0.iconfinder.com/data/icons/evericons-16px/16/x-128.png" parent="1" vertex="1">
          <mxGeometry x="460" y="620" width="20" height="20" as="geometry" />
        </mxCell>
        <mxCell id="DtkK7vVMwpk1N3uGZUYi-67" style="rounded=0;orthogonalLoop=1;jettySize=auto;html=1;exitX=1;exitY=1;exitDx=0;exitDy=0;entryX=0;entryY=0;entryDx=0;entryDy=0;" parent="1" source="DtkK7vVMwpk1N3uGZUYi-56" target="DtkK7vVMwpk1N3uGZUYi-66" edge="1">
          <mxGeometry relative="1" as="geometry">
            <mxPoint x="510" y="660" as="targetPoint" />
          </mxGeometry>
        </mxCell>
        <mxCell id="DtkK7vVMwpk1N3uGZUYi-68" style="edgeStyle=orthogonalEdgeStyle;rounded=0;orthogonalLoop=1;jettySize=auto;html=1;exitX=0.25;exitY=0;exitDx=0;exitDy=0;curved=1;strokeColor=#FF99FF;" parent="1" source="DtkK7vVMwpk1N3uGZUYi-69" edge="1">
          <mxGeometry relative="1" as="geometry">
            <mxPoint x="670" y="660" as="targetPoint" />
          </mxGeometry>
        </mxCell>
        <mxCell id="DtkK7vVMwpk1N3uGZUYi-69" value="&lt;h1 style=&quot;font-size: 17px;&quot;&gt;&lt;font style=&quot;font-size: 17px;&quot;&gt;Loss&lt;/font&gt;&lt;/h1&gt;&lt;p style=&quot;font-size: 17px;&quot;&gt;Loss is identified based on wrong offset/sequence number. A request is sent and a flag is set to wait for the repeat. Packet handlers are not called, despite it being a terminate&lt;br style=&quot;font-size: 17px;&quot;&gt;&lt;/p&gt;" style="text;html=1;strokeColor=none;fillColor=none;spacing=5;spacingTop=-20;whiteSpace=wrap;overflow=hidden;rounded=0;fontSize=17;" parent="1" vertex="1">
          <mxGeometry x="560" y="690" width="230" height="180" as="geometry" />
        </mxCell>
        <mxCell id="DtkK7vVMwpk1N3uGZUYi-70" value="Single Contained Packet Loss" style="text;html=1;strokeColor=none;fillColor=none;align=left;verticalAlign=top;whiteSpace=wrap;rounded=0;fontStyle=1;fontSize=18;" parent="1" vertex="1">
          <mxGeometry x="10" y="10" width="290" height="30" as="geometry" />
        </mxCell>
        <mxCell id="DtkK7vVMwpk1N3uGZUYi-71" value="Single Multipart Continue Packet Loss" style="text;html=1;strokeColor=none;fillColor=none;align=left;verticalAlign=top;whiteSpace=wrap;rounded=0;fontStyle=1;fontSize=20;" parent="1" vertex="1">
          <mxGeometry x="10" y="490" width="400" height="30" as="geometry" />
        </mxCell>
        <mxCell id="DtkK7vVMwpk1N3uGZUYi-84" value="" style="group" parent="1" vertex="1" connectable="0">
          <mxGeometry x="690" y="620" width="120" height="80" as="geometry" />
        </mxCell>
        <mxCell id="DtkK7vVMwpk1N3uGZUYi-86" style="edgeStyle=none;rounded=0;orthogonalLoop=1;jettySize=auto;html=1;exitX=1;exitY=0;exitDx=0;exitDy=0;" parent="DtkK7vVMwpk1N3uGZUYi-84" source="DtkK7vVMwpk1N3uGZUYi-74" edge="1">
          <mxGeometry relative="1" as="geometry">
            <mxPoint x="160" y="-50" as="targetPoint" />
          </mxGeometry>
        </mxCell>
        <mxCell id="DtkK7vVMwpk1N3uGZUYi-74" value="rf_request_t" style="rounded=0;whiteSpace=wrap;html=1;fontFamily=Courier New;fontStyle=1" parent="DtkK7vVMwpk1N3uGZUYi-84" vertex="1">
          <mxGeometry width="120" height="20" as="geometry" />
        </mxCell>
        <mxCell id="DtkK7vVMwpk1N3uGZUYi-75" value="seq: 0" style="rounded=0;whiteSpace=wrap;html=1;fontColor=#969696;" parent="DtkK7vVMwpk1N3uGZUYi-84" vertex="1">
          <mxGeometry y="20" width="60" height="20" as="geometry" />
        </mxCell>
        <mxCell id="DtkK7vVMwpk1N3uGZUYi-76" value="off: 0" style="rounded=0;whiteSpace=wrap;html=1;fontColor=#969696;" parent="DtkK7vVMwpk1N3uGZUYi-84" vertex="1">
          <mxGeometry x="60" y="20" width="60" height="20" as="geometry" />
        </mxCell>
        <mxCell id="DtkK7vVMwpk1N3uGZUYi-82" value="r_seq: 1" style="rounded=0;whiteSpace=wrap;html=1;fontColor=#969696;" parent="DtkK7vVMwpk1N3uGZUYi-84" vertex="1">
          <mxGeometry y="40" width="60" height="20" as="geometry" />
        </mxCell>
        <mxCell id="DtkK7vVMwpk1N3uGZUYi-83" value="r_off: 1" style="rounded=0;whiteSpace=wrap;html=1;fontColor=#969696;" parent="DtkK7vVMwpk1N3uGZUYi-84" vertex="1">
          <mxGeometry x="60" y="40" width="60" height="20" as="geometry" />
        </mxCell>
        <mxCell id="DtkK7vVMwpk1N3uGZUYi-87" value="" style="group" parent="1" vertex="1" connectable="0">
          <mxGeometry x="850" y="540" width="120" height="60" as="geometry" />
        </mxCell>
        <mxCell id="DtkK7vVMwpk1N3uGZUYi-88" value="rf_dmx_t" style="rounded=0;whiteSpace=wrap;html=1;fontFamily=Courier New;fontStyle=1" parent="DtkK7vVMwpk1N3uGZUYi-87" vertex="1">
          <mxGeometry width="120" height="20" as="geometry" />
        </mxCell>
        <mxCell id="DtkK7vVMwpk1N3uGZUYi-89" value="seq: 1" style="rounded=0;whiteSpace=wrap;html=1;fontColor=#969696;" parent="DtkK7vVMwpk1N3uGZUYi-87" vertex="1">
          <mxGeometry y="20" width="60" height="20" as="geometry" />
        </mxCell>
        <mxCell id="DtkK7vVMwpk1N3uGZUYi-90" value="off: 1" style="rounded=0;whiteSpace=wrap;html=1;fontColor=#969696;" parent="DtkK7vVMwpk1N3uGZUYi-87" vertex="1">
          <mxGeometry x="60" y="20" width="60" height="20" as="geometry" />
        </mxCell>
        <mxCell id="DtkK7vVMwpk1N3uGZUYi-91" value="S" style="rounded=0;whiteSpace=wrap;html=1;fillColor=#f5f5f5;strokeColor=#666666;fontColor=#333333;" parent="DtkK7vVMwpk1N3uGZUYi-87" vertex="1">
          <mxGeometry y="40" width="30" height="20" as="geometry" />
        </mxCell>
        <mxCell id="DtkK7vVMwpk1N3uGZUYi-92" value="C" style="rounded=0;whiteSpace=wrap;html=1;fillColor=#ffe6cc;strokeColor=#d79b00;" parent="DtkK7vVMwpk1N3uGZUYi-87" vertex="1">
          <mxGeometry x="30" y="40" width="30" height="20" as="geometry" />
        </mxCell>
        <mxCell id="DtkK7vVMwpk1N3uGZUYi-93" value="T" style="rounded=0;whiteSpace=wrap;html=1;fillColor=#f5f5f5;strokeColor=#666666;fontColor=#333333;" parent="DtkK7vVMwpk1N3uGZUYi-87" vertex="1">
          <mxGeometry x="60" y="40" width="30" height="20" as="geometry" />
        </mxCell>
        <mxCell id="DtkK7vVMwpk1N3uGZUYi-94" value="R" style="rounded=0;whiteSpace=wrap;html=1;fillColor=#ffe6cc;strokeColor=#d79b00;" parent="DtkK7vVMwpk1N3uGZUYi-87" vertex="1">
          <mxGeometry x="90" y="40" width="30" height="20" as="geometry" />
        </mxCell>
        <mxCell id="DtkK7vVMwpk1N3uGZUYi-95" style="rounded=0;orthogonalLoop=1;jettySize=auto;html=1;exitX=1;exitY=1;exitDx=0;exitDy=0;" parent="1" edge="1">
          <mxGeometry relative="1" as="geometry">
            <mxPoint x="1040" y="660" as="targetPoint" />
            <mxPoint x="970" y="600" as="sourcePoint" />
          </mxGeometry>
        </mxCell>
        <mxCell id="DtkK7vVMwpk1N3uGZUYi-96" style="edgeStyle=orthogonalEdgeStyle;rounded=0;orthogonalLoop=1;jettySize=auto;html=1;exitX=0.25;exitY=0;exitDx=0;exitDy=0;curved=1;strokeColor=#FF99FF;" parent="1" source="DtkK7vVMwpk1N3uGZUYi-97" edge="1">
          <mxGeometry relative="1" as="geometry">
            <mxPoint x="1040" y="660" as="targetPoint" />
          </mxGeometry>
        </mxCell>
        <mxCell id="DtkK7vVMwpk1N3uGZUYi-97" value="&lt;h1 style=&quot;font-size: 17px;&quot;&gt;&lt;font style=&quot;font-size: 17px;&quot;&gt;Resend Received&lt;/font&gt;&lt;/h1&gt;&lt;p style=&quot;font-size: 17px;&quot;&gt;Resent packet is received (invalid sequence/offset is ignored due to Resend flag), inserted into buffer based on offset position. Multipart packet identified as complete, passed to the handler with complete data&lt;/p&gt;" style="text;html=1;strokeColor=none;fillColor=none;spacing=5;spacingTop=-20;whiteSpace=wrap;overflow=hidden;rounded=0;fontSize=17;" parent="1" vertex="1">
          <mxGeometry x="880" y="730" width="300" height="170" as="geometry" />
        </mxCell>
        <mxCell id="DtkK7vVMwpk1N3uGZUYi-98" value="" style="endArrow=baseDash;html=1;rounded=0;dashed=1;dashPattern=1 4;endFill=0;" parent="1" edge="1">
          <mxGeometry width="50" height="50" relative="1" as="geometry">
            <mxPoint x="350" y="180" as="sourcePoint" />
            <mxPoint x="350" y="200" as="targetPoint" />
          </mxGeometry>
        </mxCell>
        <mxCell id="DtkK7vVMwpk1N3uGZUYi-99" value="" style="endArrow=baseDash;html=1;rounded=0;dashed=1;dashPattern=1 4;endFill=0;" parent="1" edge="1">
          <mxGeometry width="50" height="50" relative="1" as="geometry">
            <mxPoint x="670" y="180" as="sourcePoint" />
            <mxPoint x="670" y="200" as="targetPoint" />
          </mxGeometry>
        </mxCell>
        <mxCell id="DtkK7vVMwpk1N3uGZUYi-100" value="" style="endArrow=baseDash;html=1;rounded=0;dashed=1;dashPattern=1 4;endFill=0;" parent="1" edge="1">
          <mxGeometry width="50" height="50" relative="1" as="geometry">
            <mxPoint x="1040" y="660" as="sourcePoint" />
            <mxPoint x="1040" y="680" as="targetPoint" />
          </mxGeometry>
        </mxCell>
        <mxCell id="DtkK7vVMwpk1N3uGZUYi-101" style="edgeStyle=orthogonalEdgeStyle;rounded=0;orthogonalLoop=1;jettySize=auto;html=1;exitX=0;exitY=1;exitDx=0;exitDy=0;curved=1;strokeColor=#FF99FF;" parent="1" source="DtkK7vVMwpk1N3uGZUYi-102" edge="1">
          <mxGeometry relative="1" as="geometry">
            <mxPoint x="840" y="560" as="targetPoint" />
          </mxGeometry>
        </mxCell>
        <mxCell id="DtkK7vVMwpk1N3uGZUYi-102" value="&lt;h1 style=&quot;font-size: 17px;&quot;&gt;&lt;font style=&quot;font-size: 17px;&quot;&gt;Resend&lt;/font&gt;&lt;/h1&gt;&lt;p style=&quot;font-size: 17px;&quot;&gt;Identical packet is sent (without modifying sequence or offset) but with the resend flag has been set.&amp;nbsp;&lt;br style=&quot;font-size: 17px;&quot;&gt;&lt;/p&gt;" style="text;html=1;strokeColor=none;fillColor=none;spacing=5;spacingTop=-20;whiteSpace=wrap;overflow=hidden;rounded=0;fontSize=17;" parent="1" vertex="1">
          <mxGeometry x="800" y="420" width="270" height="100" as="geometry" />
        </mxCell>
        <mxCell id="DtkK7vVMwpk1N3uGZUYi-103" value="Master" style="rounded=0;whiteSpace=wrap;html=1;" parent="1" vertex="1">
          <mxGeometry x="20" y="1150" width="120" height="60" as="geometry" />
        </mxCell>
        <mxCell id="DtkK7vVMwpk1N3uGZUYi-104" value="Node" style="rounded=0;whiteSpace=wrap;html=1;" parent="1" vertex="1">
          <mxGeometry x="20" y="1240" width="120" height="60" as="geometry" />
        </mxCell>
        <mxCell id="DtkK7vVMwpk1N3uGZUYi-105" value="" style="endArrow=none;html=1;rounded=0;strokeColor=#CFCFCF;" parent="1" source="DtkK7vVMwpk1N3uGZUYi-104" edge="1">
          <mxGeometry width="50" height="50" relative="1" as="geometry">
            <mxPoint x="400" y="1330" as="sourcePoint" />
            <mxPoint x="1210" y="1270" as="targetPoint" />
          </mxGeometry>
        </mxCell>
        <mxCell id="DtkK7vVMwpk1N3uGZUYi-106" value="" style="endArrow=none;html=1;rounded=0;strokeColor=#CFCFCF;" parent="1" source="DtkK7vVMwpk1N3uGZUYi-103" edge="1">
          <mxGeometry width="50" height="50" relative="1" as="geometry">
            <mxPoint x="140" y="1179.71" as="sourcePoint" />
            <mxPoint x="1210" y="1179" as="targetPoint" />
          </mxGeometry>
        </mxCell>
        <mxCell id="DtkK7vVMwpk1N3uGZUYi-107" value="" style="group" parent="1" vertex="1" connectable="0">
          <mxGeometry x="170" y="1150" width="120" height="60" as="geometry" />
        </mxCell>
        <mxCell id="DtkK7vVMwpk1N3uGZUYi-108" value="rf_dmx_t" style="rounded=0;whiteSpace=wrap;html=1;fontFamily=Courier New;fontStyle=1" parent="DtkK7vVMwpk1N3uGZUYi-107" vertex="1">
          <mxGeometry width="120" height="20" as="geometry" />
        </mxCell>
        <mxCell id="DtkK7vVMwpk1N3uGZUYi-109" value="seq: 0" style="rounded=0;whiteSpace=wrap;html=1;fontColor=#969696;" parent="DtkK7vVMwpk1N3uGZUYi-107" vertex="1">
          <mxGeometry y="20" width="60" height="20" as="geometry" />
        </mxCell>
        <mxCell id="DtkK7vVMwpk1N3uGZUYi-110" value="off: 0" style="rounded=0;whiteSpace=wrap;html=1;fontColor=#969696;" parent="DtkK7vVMwpk1N3uGZUYi-107" vertex="1">
          <mxGeometry x="60" y="20" width="60" height="20" as="geometry" />
        </mxCell>
        <mxCell id="DtkK7vVMwpk1N3uGZUYi-111" value="S" style="rounded=0;whiteSpace=wrap;html=1;fillColor=#ffe6cc;strokeColor=#d79b00;" parent="DtkK7vVMwpk1N3uGZUYi-107" vertex="1">
          <mxGeometry y="40" width="30" height="20" as="geometry" />
        </mxCell>
        <mxCell id="DtkK7vVMwpk1N3uGZUYi-112" value="C" style="rounded=0;whiteSpace=wrap;html=1;fontColor=#333333;fillColor=#f5f5f5;strokeColor=#666666;" parent="DtkK7vVMwpk1N3uGZUYi-107" vertex="1">
          <mxGeometry x="30" y="40" width="30" height="20" as="geometry" />
        </mxCell>
        <mxCell id="DtkK7vVMwpk1N3uGZUYi-114" value="T" style="rounded=0;whiteSpace=wrap;html=1;fillColor=#f5f5f5;strokeColor=#666666;fontColor=#333333;" parent="DtkK7vVMwpk1N3uGZUYi-107" vertex="1">
          <mxGeometry x="60" y="40" width="30" height="20" as="geometry" />
        </mxCell>
        <mxCell id="DtkK7vVMwpk1N3uGZUYi-115" value="R" style="rounded=0;whiteSpace=wrap;html=1;fontColor=#333333;fillColor=#f5f5f5;strokeColor=#666666;" parent="DtkK7vVMwpk1N3uGZUYi-107" vertex="1">
          <mxGeometry x="90" y="40" width="30" height="20" as="geometry" />
        </mxCell>
        <mxCell id="DtkK7vVMwpk1N3uGZUYi-116" value="" style="group" parent="1" vertex="1" connectable="0">
          <mxGeometry x="330" y="1150" width="120" height="60" as="geometry" />
        </mxCell>
        <mxCell id="DtkK7vVMwpk1N3uGZUYi-117" value="rf_dmx_t" style="rounded=0;whiteSpace=wrap;html=1;fontFamily=Courier New;fontStyle=1" parent="DtkK7vVMwpk1N3uGZUYi-116" vertex="1">
          <mxGeometry width="120" height="20" as="geometry" />
        </mxCell>
        <mxCell id="DtkK7vVMwpk1N3uGZUYi-118" value="seq: 1" style="rounded=0;whiteSpace=wrap;html=1;fontColor=#969696;" parent="DtkK7vVMwpk1N3uGZUYi-116" vertex="1">
          <mxGeometry y="20" width="60" height="20" as="geometry" />
        </mxCell>
        <mxCell id="DtkK7vVMwpk1N3uGZUYi-119" value="off: 1" style="rounded=0;whiteSpace=wrap;html=1;fontColor=#969696;" parent="DtkK7vVMwpk1N3uGZUYi-116" vertex="1">
          <mxGeometry x="60" y="20" width="60" height="20" as="geometry" />
        </mxCell>
        <mxCell id="DtkK7vVMwpk1N3uGZUYi-120" value="S" style="rounded=0;whiteSpace=wrap;html=1;fillColor=#f5f5f5;strokeColor=#666666;fontColor=#333333;" parent="DtkK7vVMwpk1N3uGZUYi-116" vertex="1">
          <mxGeometry y="40" width="30" height="20" as="geometry" />
        </mxCell>
        <mxCell id="DtkK7vVMwpk1N3uGZUYi-121" value="C" style="rounded=0;whiteSpace=wrap;html=1;fillColor=#ffe6cc;strokeColor=#d79b00;" parent="DtkK7vVMwpk1N3uGZUYi-116" vertex="1">
          <mxGeometry x="30" y="40" width="30" height="20" as="geometry" />
        </mxCell>
        <mxCell id="DtkK7vVMwpk1N3uGZUYi-122" value="T" style="rounded=0;whiteSpace=wrap;html=1;fillColor=#f5f5f5;strokeColor=#666666;fontColor=#333333;" parent="DtkK7vVMwpk1N3uGZUYi-116" vertex="1">
          <mxGeometry x="60" y="40" width="30" height="20" as="geometry" />
        </mxCell>
        <mxCell id="DtkK7vVMwpk1N3uGZUYi-123" value="R" style="rounded=0;whiteSpace=wrap;html=1;fontColor=#333333;fillColor=#f5f5f5;strokeColor=#666666;" parent="DtkK7vVMwpk1N3uGZUYi-116" vertex="1">
          <mxGeometry x="90" y="40" width="30" height="20" as="geometry" />
        </mxCell>
        <mxCell id="DtkK7vVMwpk1N3uGZUYi-124" value="" style="group" parent="1" vertex="1" connectable="0">
          <mxGeometry x="540" y="1150" width="120" height="60" as="geometry" />
        </mxCell>
        <mxCell id="DtkK7vVMwpk1N3uGZUYi-125" value="rf_dmx_t" style="rounded=0;whiteSpace=wrap;html=1;fontFamily=Courier New;fontStyle=1" parent="DtkK7vVMwpk1N3uGZUYi-124" vertex="1">
          <mxGeometry width="120" height="20" as="geometry" />
        </mxCell>
        <mxCell id="DtkK7vVMwpk1N3uGZUYi-126" value="seq: 2" style="rounded=0;whiteSpace=wrap;html=1;fontColor=#969696;" parent="DtkK7vVMwpk1N3uGZUYi-124" vertex="1">
          <mxGeometry y="20" width="60" height="20" as="geometry" />
        </mxCell>
        <mxCell id="DtkK7vVMwpk1N3uGZUYi-127" value="off: 2" style="rounded=0;whiteSpace=wrap;html=1;fontColor=#969696;" parent="DtkK7vVMwpk1N3uGZUYi-124" vertex="1">
          <mxGeometry x="60" y="20" width="60" height="20" as="geometry" />
        </mxCell>
        <mxCell id="DtkK7vVMwpk1N3uGZUYi-128" value="S" style="rounded=0;whiteSpace=wrap;html=1;fillColor=#f5f5f5;strokeColor=#666666;fontColor=#333333;" parent="DtkK7vVMwpk1N3uGZUYi-124" vertex="1">
          <mxGeometry y="40" width="30" height="20" as="geometry" />
        </mxCell>
        <mxCell id="DtkK7vVMwpk1N3uGZUYi-129" value="C" style="rounded=0;whiteSpace=wrap;html=1;fontColor=#333333;fillColor=#f5f5f5;strokeColor=#666666;" parent="DtkK7vVMwpk1N3uGZUYi-124" vertex="1">
          <mxGeometry x="30" y="40" width="30" height="20" as="geometry" />
        </mxCell>
        <mxCell id="DtkK7vVMwpk1N3uGZUYi-130" style="rounded=0;orthogonalLoop=1;jettySize=auto;html=1;exitX=1;exitY=1;exitDx=0;exitDy=0;" parent="DtkK7vVMwpk1N3uGZUYi-124" source="DtkK7vVMwpk1N3uGZUYi-132" edge="1">
          <mxGeometry relative="1" as="geometry">
            <mxPoint x="190" y="120" as="targetPoint" />
          </mxGeometry>
        </mxCell>
        <mxCell id="DtkK7vVMwpk1N3uGZUYi-131" value="T" style="rounded=0;whiteSpace=wrap;html=1;fillColor=#ffe6cc;strokeColor=#d79b00;" parent="DtkK7vVMwpk1N3uGZUYi-124" vertex="1">
          <mxGeometry x="60" y="40" width="30" height="20" as="geometry" />
        </mxCell>
        <mxCell id="DtkK7vVMwpk1N3uGZUYi-132" value="R" style="rounded=0;whiteSpace=wrap;html=1;fontColor=#333333;fillColor=#f5f5f5;strokeColor=#666666;" parent="DtkK7vVMwpk1N3uGZUYi-124" vertex="1">
          <mxGeometry x="90" y="40" width="30" height="20" as="geometry" />
        </mxCell>
        <mxCell id="DtkK7vVMwpk1N3uGZUYi-133" value="" style="shape=image;html=1;verticalAlign=top;verticalLabelPosition=bottom;labelBackgroundColor=#ffffff;imageAspect=0;aspect=fixed;image=https://cdn0.iconfinder.com/data/icons/evericons-16px/16/x-128.png" parent="1" vertex="1">
          <mxGeometry x="310" y="1230" width="20" height="20" as="geometry" />
        </mxCell>
        <mxCell id="DtkK7vVMwpk1N3uGZUYi-134" style="rounded=0;orthogonalLoop=1;jettySize=auto;html=1;exitX=1;exitY=1;exitDx=0;exitDy=0;entryX=0;entryY=0;entryDx=0;entryDy=0;" parent="1" target="DtkK7vVMwpk1N3uGZUYi-133" edge="1">
          <mxGeometry relative="1" as="geometry">
            <mxPoint x="360" y="1270" as="targetPoint" />
            <mxPoint x="290" y="1210" as="sourcePoint" />
          </mxGeometry>
        </mxCell>
        <mxCell id="DtkK7vVMwpk1N3uGZUYi-135" style="edgeStyle=orthogonalEdgeStyle;rounded=0;orthogonalLoop=1;jettySize=auto;html=1;exitX=0.25;exitY=0;exitDx=0;exitDy=0;curved=1;strokeColor=#FF99FF;" parent="1" source="DtkK7vVMwpk1N3uGZUYi-136" edge="1">
          <mxGeometry relative="1" as="geometry">
            <mxPoint x="520" y="1270" as="targetPoint" />
          </mxGeometry>
        </mxCell>
        <mxCell id="DtkK7vVMwpk1N3uGZUYi-136" value="&lt;h1 style=&quot;font-size: 17px;&quot;&gt;&lt;font style=&quot;font-size: 17px;&quot;&gt;Loss&lt;/font&gt;&lt;/h1&gt;&lt;p style=&quot;font-size: 17px;&quot;&gt;Loss is identified based on continue flag without previous start flag. A request is sent and a flag is set to wait for the repeat.&lt;br style=&quot;font-size: 17px;&quot;&gt;&lt;/p&gt;" style="text;html=1;strokeColor=none;fillColor=none;spacing=5;spacingTop=-20;whiteSpace=wrap;overflow=hidden;rounded=0;fontSize=17;" parent="1" vertex="1">
          <mxGeometry x="410" y="1330" width="300" height="130" as="geometry" />
        </mxCell>
        <mxCell id="DtkK7vVMwpk1N3uGZUYi-137" value="Single Multipart Start Packet Loss" style="text;html=1;strokeColor=none;fillColor=none;align=left;verticalAlign=top;whiteSpace=wrap;rounded=0;fontStyle=1;fontSize=20;" parent="1" vertex="1">
          <mxGeometry x="20" y="1100" width="350" height="30" as="geometry" />
        </mxCell>
        <mxCell id="DtkK7vVMwpk1N3uGZUYi-138" value="" style="group" parent="1" vertex="1" connectable="0">
          <mxGeometry x="530" y="1230" width="120" height="80" as="geometry" />
        </mxCell>
        <mxCell id="DtkK7vVMwpk1N3uGZUYi-139" style="edgeStyle=none;rounded=0;orthogonalLoop=1;jettySize=auto;html=1;exitX=1;exitY=0;exitDx=0;exitDy=0;" parent="DtkK7vVMwpk1N3uGZUYi-138" source="DtkK7vVMwpk1N3uGZUYi-140" edge="1">
          <mxGeometry relative="1" as="geometry">
            <mxPoint x="190" y="-50" as="targetPoint" />
          </mxGeometry>
        </mxCell>
        <mxCell id="DtkK7vVMwpk1N3uGZUYi-140" value="rf_request_t" style="rounded=0;whiteSpace=wrap;html=1;fontFamily=Courier New;fontStyle=1" parent="DtkK7vVMwpk1N3uGZUYi-138" vertex="1">
          <mxGeometry width="120" height="20" as="geometry" />
        </mxCell>
        <mxCell id="DtkK7vVMwpk1N3uGZUYi-141" value="seq: 0" style="rounded=0;whiteSpace=wrap;html=1;fontColor=#969696;" parent="DtkK7vVMwpk1N3uGZUYi-138" vertex="1">
          <mxGeometry y="20" width="60" height="20" as="geometry" />
        </mxCell>
        <mxCell id="DtkK7vVMwpk1N3uGZUYi-142" value="off: 0" style="rounded=0;whiteSpace=wrap;html=1;fontColor=#969696;" parent="DtkK7vVMwpk1N3uGZUYi-138" vertex="1">
          <mxGeometry x="60" y="20" width="60" height="20" as="geometry" />
        </mxCell>
        <mxCell id="DtkK7vVMwpk1N3uGZUYi-147" value="r_seq: 0" style="rounded=0;whiteSpace=wrap;html=1;fontColor=#969696;" parent="DtkK7vVMwpk1N3uGZUYi-138" vertex="1">
          <mxGeometry y="40" width="60" height="20" as="geometry" />
        </mxCell>
        <mxCell id="DtkK7vVMwpk1N3uGZUYi-148" value="r_off: 0" style="rounded=0;whiteSpace=wrap;html=1;fontColor=#969696;" parent="DtkK7vVMwpk1N3uGZUYi-138" vertex="1">
          <mxGeometry x="60" y="40" width="60" height="20" as="geometry" />
        </mxCell>
        <mxCell id="DtkK7vVMwpk1N3uGZUYi-149" value="" style="group" parent="1" vertex="1" connectable="0">
          <mxGeometry x="720" y="1150" width="120" height="60" as="geometry" />
        </mxCell>
        <mxCell id="DtkK7vVMwpk1N3uGZUYi-150" value="rf_dmx_t" style="rounded=0;whiteSpace=wrap;html=1;fontFamily=Courier New;fontStyle=1" parent="DtkK7vVMwpk1N3uGZUYi-149" vertex="1">
          <mxGeometry width="120" height="20" as="geometry" />
        </mxCell>
        <mxCell id="DtkK7vVMwpk1N3uGZUYi-151" value="seq: 0" style="rounded=0;whiteSpace=wrap;html=1;fontColor=#969696;" parent="DtkK7vVMwpk1N3uGZUYi-149" vertex="1">
          <mxGeometry y="20" width="60" height="20" as="geometry" />
        </mxCell>
        <mxCell id="DtkK7vVMwpk1N3uGZUYi-152" value="off: 0" style="rounded=0;whiteSpace=wrap;html=1;fontColor=#969696;" parent="DtkK7vVMwpk1N3uGZUYi-149" vertex="1">
          <mxGeometry x="60" y="20" width="60" height="20" as="geometry" />
        </mxCell>
        <mxCell id="DtkK7vVMwpk1N3uGZUYi-153" value="S" style="rounded=0;whiteSpace=wrap;html=1;fillColor=#ffe6cc;strokeColor=#d79b00;" parent="DtkK7vVMwpk1N3uGZUYi-149" vertex="1">
          <mxGeometry y="40" width="30" height="20" as="geometry" />
        </mxCell>
        <mxCell id="DtkK7vVMwpk1N3uGZUYi-154" value="C" style="rounded=0;whiteSpace=wrap;html=1;fillColor=#f5f5f5;strokeColor=#666666;fontColor=#333333;" parent="DtkK7vVMwpk1N3uGZUYi-149" vertex="1">
          <mxGeometry x="30" y="40" width="30" height="20" as="geometry" />
        </mxCell>
        <mxCell id="DtkK7vVMwpk1N3uGZUYi-155" value="T" style="rounded=0;whiteSpace=wrap;html=1;fillColor=#f5f5f5;strokeColor=#666666;fontColor=#333333;" parent="DtkK7vVMwpk1N3uGZUYi-149" vertex="1">
          <mxGeometry x="60" y="40" width="30" height="20" as="geometry" />
        </mxCell>
        <mxCell id="DtkK7vVMwpk1N3uGZUYi-156" value="R" style="rounded=0;whiteSpace=wrap;html=1;fillColor=#ffe6cc;strokeColor=#d79b00;" parent="DtkK7vVMwpk1N3uGZUYi-149" vertex="1">
          <mxGeometry x="90" y="40" width="30" height="20" as="geometry" />
        </mxCell>
        <mxCell id="DtkK7vVMwpk1N3uGZUYi-157" style="rounded=0;orthogonalLoop=1;jettySize=auto;html=1;exitX=1;exitY=1;exitDx=0;exitDy=0;" parent="1" edge="1">
          <mxGeometry relative="1" as="geometry">
            <mxPoint x="910" y="1270" as="targetPoint" />
            <mxPoint x="840" y="1210" as="sourcePoint" />
          </mxGeometry>
        </mxCell>
        <mxCell id="DtkK7vVMwpk1N3uGZUYi-158" style="edgeStyle=orthogonalEdgeStyle;rounded=0;orthogonalLoop=1;jettySize=auto;html=1;exitX=0.25;exitY=0;exitDx=0;exitDy=0;curved=1;strokeColor=#FF99FF;" parent="1" source="DtkK7vVMwpk1N3uGZUYi-159" edge="1">
          <mxGeometry relative="1" as="geometry">
            <mxPoint x="910" y="1270" as="targetPoint" />
          </mxGeometry>
        </mxCell>
        <mxCell id="DtkK7vVMwpk1N3uGZUYi-159" value="&lt;h1 style=&quot;font-size: 17px;&quot;&gt;&lt;font style=&quot;font-size: 17px;&quot;&gt;Resend Received&lt;/font&gt;&lt;/h1&gt;&lt;p style=&quot;font-size: 17px;&quot;&gt;Resent packet is received (invalid sequence/offset is ignored due to Resend flag), inserted into buffer based on offset position. Multipart packet identified as complete, passed to the handler with complete data&lt;/p&gt;" style="text;html=1;strokeColor=none;fillColor=none;spacing=5;spacingTop=-20;whiteSpace=wrap;overflow=hidden;rounded=0;fontSize=17;" parent="1" vertex="1">
          <mxGeometry x="840" y="1310" width="320" height="160" as="geometry" />
        </mxCell>
        <mxCell id="DtkK7vVMwpk1N3uGZUYi-160" value="" style="endArrow=baseDash;html=1;rounded=0;dashed=1;dashPattern=1 4;endFill=0;" parent="1" edge="1">
          <mxGeometry width="50" height="50" relative="1" as="geometry">
            <mxPoint x="910" y="1270" as="sourcePoint" />
            <mxPoint x="910" y="1290" as="targetPoint" />
          </mxGeometry>
        </mxCell>
        <mxCell id="DtkK7vVMwpk1N3uGZUYi-161" style="edgeStyle=orthogonalEdgeStyle;rounded=0;orthogonalLoop=1;jettySize=auto;html=1;exitX=0;exitY=1;exitDx=0;exitDy=0;curved=1;strokeColor=#FF99FF;entryX=0.5;entryY=0;entryDx=0;entryDy=0;" parent="1" source="DtkK7vVMwpk1N3uGZUYi-162" target="DtkK7vVMwpk1N3uGZUYi-150" edge="1">
          <mxGeometry relative="1" as="geometry">
            <mxPoint x="850" y="1170" as="targetPoint" />
          </mxGeometry>
        </mxCell>
        <mxCell id="DtkK7vVMwpk1N3uGZUYi-162" value="&lt;h1 style=&quot;font-size: 17px;&quot;&gt;&lt;font style=&quot;font-size: 17px;&quot;&gt;Resend&lt;/font&gt;&lt;/h1&gt;&lt;p style=&quot;font-size: 17px;&quot;&gt;Identical packet is sent (without modifying sequence or offset) but with the resend flag has been set.&amp;nbsp;&lt;br style=&quot;font-size: 17px;&quot;&gt;&lt;/p&gt;" style="text;html=1;strokeColor=none;fillColor=none;spacing=5;spacingTop=-20;whiteSpace=wrap;overflow=hidden;rounded=0;fontSize=17;" parent="1" vertex="1">
          <mxGeometry x="820" y="1000" width="340" height="100" as="geometry" />
        </mxCell>
        <mxCell id="DtkK7vVMwpk1N3uGZUYi-163" style="rounded=0;orthogonalLoop=1;jettySize=auto;html=1;exitX=1;exitY=1;exitDx=0;exitDy=0;" parent="1" edge="1">
          <mxGeometry relative="1" as="geometry">
            <mxPoint x="520" y="1270" as="targetPoint" />
            <mxPoint x="450" y="1210" as="sourcePoint" />
          </mxGeometry>
        </mxCell>
        <mxCell id="DtkK7vVMwpk1N3uGZUYi-164" value="Master" style="rounded=0;whiteSpace=wrap;html=1;" parent="1" vertex="1">
          <mxGeometry x="20" y="1720" width="120" height="60" as="geometry" />
        </mxCell>
        <mxCell id="DtkK7vVMwpk1N3uGZUYi-165" value="Node" style="rounded=0;whiteSpace=wrap;html=1;" parent="1" vertex="1">
          <mxGeometry x="20" y="1810" width="120" height="60" as="geometry" />
        </mxCell>
        <mxCell id="DtkK7vVMwpk1N3uGZUYi-166" value="" style="endArrow=none;html=1;rounded=0;strokeColor=#CFCFCF;" parent="1" source="DtkK7vVMwpk1N3uGZUYi-164" edge="1">
          <mxGeometry width="50" height="50" relative="1" as="geometry">
            <mxPoint x="140" y="1749.71" as="sourcePoint" />
            <mxPoint x="1210" y="1750" as="targetPoint" />
          </mxGeometry>
        </mxCell>
        <mxCell id="DtkK7vVMwpk1N3uGZUYi-167" value="" style="group" parent="1" vertex="1" connectable="0">
          <mxGeometry x="170" y="1720" width="120" height="60" as="geometry" />
        </mxCell>
        <mxCell id="DtkK7vVMwpk1N3uGZUYi-168" value="rf_dmx_t" style="rounded=0;whiteSpace=wrap;html=1;fontFamily=Courier New;fontStyle=1" parent="DtkK7vVMwpk1N3uGZUYi-167" vertex="1">
          <mxGeometry width="120" height="20" as="geometry" />
        </mxCell>
        <mxCell id="DtkK7vVMwpk1N3uGZUYi-169" value="seq: 0" style="rounded=0;whiteSpace=wrap;html=1;fontColor=#969696;" parent="DtkK7vVMwpk1N3uGZUYi-167" vertex="1">
          <mxGeometry y="20" width="60" height="20" as="geometry" />
        </mxCell>
        <mxCell id="DtkK7vVMwpk1N3uGZUYi-170" value="off: 0" style="rounded=0;whiteSpace=wrap;html=1;fontColor=#969696;" parent="DtkK7vVMwpk1N3uGZUYi-167" vertex="1">
          <mxGeometry x="60" y="20" width="60" height="20" as="geometry" />
        </mxCell>
        <mxCell id="DtkK7vVMwpk1N3uGZUYi-171" value="S" style="rounded=0;whiteSpace=wrap;html=1;fillColor=#ffe6cc;strokeColor=#d79b00;" parent="DtkK7vVMwpk1N3uGZUYi-167" vertex="1">
          <mxGeometry y="40" width="30" height="20" as="geometry" />
        </mxCell>
        <mxCell id="DtkK7vVMwpk1N3uGZUYi-172" value="C" style="rounded=0;whiteSpace=wrap;html=1;fontColor=#333333;fillColor=#f5f5f5;strokeColor=#666666;" parent="DtkK7vVMwpk1N3uGZUYi-167" vertex="1">
          <mxGeometry x="30" y="40" width="30" height="20" as="geometry" />
        </mxCell>
        <mxCell id="DtkK7vVMwpk1N3uGZUYi-173" value="T" style="rounded=0;whiteSpace=wrap;html=1;fillColor=#f5f5f5;strokeColor=#666666;fontColor=#333333;" parent="DtkK7vVMwpk1N3uGZUYi-167" vertex="1">
          <mxGeometry x="60" y="40" width="30" height="20" as="geometry" />
        </mxCell>
        <mxCell id="DtkK7vVMwpk1N3uGZUYi-174" value="R" style="rounded=0;whiteSpace=wrap;html=1;fontColor=#333333;fillColor=#f5f5f5;strokeColor=#666666;" parent="DtkK7vVMwpk1N3uGZUYi-167" vertex="1">
          <mxGeometry x="90" y="40" width="30" height="20" as="geometry" />
        </mxCell>
        <mxCell id="DtkK7vVMwpk1N3uGZUYi-175" value="" style="group" parent="1" vertex="1" connectable="0">
          <mxGeometry x="330" y="1720" width="120" height="60" as="geometry" />
        </mxCell>
        <mxCell id="DtkK7vVMwpk1N3uGZUYi-176" value="rf_dmx_t" style="rounded=0;whiteSpace=wrap;html=1;fontFamily=Courier New;fontStyle=1" parent="DtkK7vVMwpk1N3uGZUYi-175" vertex="1">
          <mxGeometry width="120" height="20" as="geometry" />
        </mxCell>
        <mxCell id="DtkK7vVMwpk1N3uGZUYi-177" value="seq: 1" style="rounded=0;whiteSpace=wrap;html=1;fontColor=#969696;" parent="DtkK7vVMwpk1N3uGZUYi-175" vertex="1">
          <mxGeometry y="20" width="60" height="20" as="geometry" />
        </mxCell>
        <mxCell id="DtkK7vVMwpk1N3uGZUYi-178" value="off: 1" style="rounded=0;whiteSpace=wrap;html=1;fontColor=#969696;" parent="DtkK7vVMwpk1N3uGZUYi-175" vertex="1">
          <mxGeometry x="60" y="20" width="60" height="20" as="geometry" />
        </mxCell>
        <mxCell id="DtkK7vVMwpk1N3uGZUYi-179" value="S" style="rounded=0;whiteSpace=wrap;html=1;fillColor=#f5f5f5;strokeColor=#666666;fontColor=#333333;" parent="DtkK7vVMwpk1N3uGZUYi-175" vertex="1">
          <mxGeometry y="40" width="30" height="20" as="geometry" />
        </mxCell>
        <mxCell id="DtkK7vVMwpk1N3uGZUYi-180" value="C" style="rounded=0;whiteSpace=wrap;html=1;fillColor=#ffe6cc;strokeColor=#d79b00;" parent="DtkK7vVMwpk1N3uGZUYi-175" vertex="1">
          <mxGeometry x="30" y="40" width="30" height="20" as="geometry" />
        </mxCell>
        <mxCell id="DtkK7vVMwpk1N3uGZUYi-181" value="T" style="rounded=0;whiteSpace=wrap;html=1;fillColor=#f5f5f5;strokeColor=#666666;fontColor=#333333;" parent="DtkK7vVMwpk1N3uGZUYi-175" vertex="1">
          <mxGeometry x="60" y="40" width="30" height="20" as="geometry" />
        </mxCell>
        <mxCell id="DtkK7vVMwpk1N3uGZUYi-182" value="R" style="rounded=0;whiteSpace=wrap;html=1;fontColor=#333333;fillColor=#f5f5f5;strokeColor=#666666;" parent="DtkK7vVMwpk1N3uGZUYi-175" vertex="1">
          <mxGeometry x="90" y="40" width="30" height="20" as="geometry" />
        </mxCell>
        <mxCell id="DtkK7vVMwpk1N3uGZUYi-183" value="" style="group" parent="1" vertex="1" connectable="0">
          <mxGeometry x="490" y="1720" width="120" height="60" as="geometry" />
        </mxCell>
        <mxCell id="DtkK7vVMwpk1N3uGZUYi-184" value="rf_dmx_t" style="rounded=0;whiteSpace=wrap;html=1;fontFamily=Courier New;fontStyle=1" parent="DtkK7vVMwpk1N3uGZUYi-183" vertex="1">
          <mxGeometry width="120" height="20" as="geometry" />
        </mxCell>
        <mxCell id="DtkK7vVMwpk1N3uGZUYi-185" value="seq: 2" style="rounded=0;whiteSpace=wrap;html=1;fontColor=#969696;" parent="DtkK7vVMwpk1N3uGZUYi-183" vertex="1">
          <mxGeometry y="20" width="60" height="20" as="geometry" />
        </mxCell>
        <mxCell id="DtkK7vVMwpk1N3uGZUYi-186" value="off: 2" style="rounded=0;whiteSpace=wrap;html=1;fontColor=#969696;" parent="DtkK7vVMwpk1N3uGZUYi-183" vertex="1">
          <mxGeometry x="60" y="20" width="60" height="20" as="geometry" />
        </mxCell>
        <mxCell id="DtkK7vVMwpk1N3uGZUYi-187" value="S" style="rounded=0;whiteSpace=wrap;html=1;fillColor=#f5f5f5;strokeColor=#666666;fontColor=#333333;" parent="DtkK7vVMwpk1N3uGZUYi-183" vertex="1">
          <mxGeometry y="40" width="30" height="20" as="geometry" />
        </mxCell>
        <mxCell id="DtkK7vVMwpk1N3uGZUYi-188" value="C" style="rounded=0;whiteSpace=wrap;html=1;fontColor=#333333;fillColor=#f5f5f5;strokeColor=#666666;" parent="DtkK7vVMwpk1N3uGZUYi-183" vertex="1">
          <mxGeometry x="30" y="40" width="30" height="20" as="geometry" />
        </mxCell>
        <mxCell id="DtkK7vVMwpk1N3uGZUYi-190" value="T" style="rounded=0;whiteSpace=wrap;html=1;fillColor=#ffe6cc;strokeColor=#d79b00;" parent="DtkK7vVMwpk1N3uGZUYi-183" vertex="1">
          <mxGeometry x="60" y="40" width="30" height="20" as="geometry" />
        </mxCell>
        <mxCell id="DtkK7vVMwpk1N3uGZUYi-191" value="R" style="rounded=0;whiteSpace=wrap;html=1;fontColor=#969696;" parent="DtkK7vVMwpk1N3uGZUYi-183" vertex="1">
          <mxGeometry x="90" y="40" width="30" height="20" as="geometry" />
        </mxCell>
        <mxCell id="DtkK7vVMwpk1N3uGZUYi-193" style="rounded=0;orthogonalLoop=1;jettySize=auto;html=1;exitX=1;exitY=1;exitDx=0;exitDy=0;" parent="1" edge="1">
          <mxGeometry relative="1" as="geometry">
            <mxPoint x="350" y="1840" as="targetPoint" />
            <mxPoint x="290" y="1780" as="sourcePoint" />
          </mxGeometry>
        </mxCell>
        <mxCell id="DtkK7vVMwpk1N3uGZUYi-194" style="edgeStyle=orthogonalEdgeStyle;rounded=0;orthogonalLoop=1;jettySize=auto;html=1;exitX=0.25;exitY=0;exitDx=0;exitDy=0;curved=1;strokeColor=#FF99FF;" parent="1" source="DtkK7vVMwpk1N3uGZUYi-195" edge="1">
          <mxGeometry relative="1" as="geometry">
            <mxPoint x="702.4814814814813" y="1820" as="targetPoint" />
          </mxGeometry>
        </mxCell>
        <mxCell id="DtkK7vVMwpk1N3uGZUYi-195" value="&lt;h1 style=&quot;font-size: 17px;&quot;&gt;&lt;font style=&quot;font-size: 17px;&quot;&gt;Loss&lt;/font&gt;&lt;/h1&gt;&lt;p style=&quot;font-size: 17px;&quot;&gt;Loss is identified based on too much time passing since last packet. A request is sent and a flag is set to wait for the repeat.&lt;br style=&quot;font-size: 17px;&quot;&gt;&lt;/p&gt;" style="text;html=1;strokeColor=none;fillColor=none;spacing=5;spacingTop=-20;whiteSpace=wrap;overflow=hidden;rounded=0;fontSize=17;" parent="1" vertex="1">
          <mxGeometry x="570" y="1870" width="200" height="180" as="geometry" />
        </mxCell>
        <mxCell id="DtkK7vVMwpk1N3uGZUYi-196" value="Single Multipart Terminate Packet Loss (Time)" style="text;html=1;strokeColor=none;fillColor=none;align=left;verticalAlign=top;whiteSpace=wrap;rounded=0;fontStyle=1;fontSize=20;" parent="1" vertex="1">
          <mxGeometry x="20" y="1670" width="490" height="30" as="geometry" />
        </mxCell>
        <mxCell id="DtkK7vVMwpk1N3uGZUYi-197" value="" style="group" parent="1" vertex="1" connectable="0">
          <mxGeometry x="760" y="1800" width="120" height="80" as="geometry" />
        </mxCell>
        <mxCell id="DtkK7vVMwpk1N3uGZUYi-198" style="edgeStyle=none;rounded=0;orthogonalLoop=1;jettySize=auto;html=1;exitX=1;exitY=0;exitDx=0;exitDy=0;" parent="DtkK7vVMwpk1N3uGZUYi-197" source="DtkK7vVMwpk1N3uGZUYi-199" edge="1">
          <mxGeometry relative="1" as="geometry">
            <mxPoint x="190" y="-50" as="targetPoint" />
          </mxGeometry>
        </mxCell>
        <mxCell id="DtkK7vVMwpk1N3uGZUYi-199" value="rf_request_t" style="rounded=0;whiteSpace=wrap;html=1;fontFamily=Courier New;fontStyle=1" parent="DtkK7vVMwpk1N3uGZUYi-197" vertex="1">
          <mxGeometry width="120" height="20" as="geometry" />
        </mxCell>
        <mxCell id="DtkK7vVMwpk1N3uGZUYi-200" value="seq: 0" style="rounded=0;whiteSpace=wrap;html=1;fontColor=#969696;" parent="DtkK7vVMwpk1N3uGZUYi-197" vertex="1">
          <mxGeometry y="20" width="60" height="20" as="geometry" />
        </mxCell>
        <mxCell id="DtkK7vVMwpk1N3uGZUYi-201" value="off: 0" style="rounded=0;whiteSpace=wrap;html=1;fontColor=#969696;" parent="DtkK7vVMwpk1N3uGZUYi-197" vertex="1">
          <mxGeometry x="60" y="20" width="60" height="20" as="geometry" />
        </mxCell>
        <mxCell id="DtkK7vVMwpk1N3uGZUYi-202" value="S" style="rounded=0;whiteSpace=wrap;html=1;fillColor=#ffe6cc;strokeColor=#d79b00;" parent="DtkK7vVMwpk1N3uGZUYi-197" vertex="1">
          <mxGeometry y="60" width="30" height="20" as="geometry" />
        </mxCell>
        <mxCell id="DtkK7vVMwpk1N3uGZUYi-203" value="C" style="rounded=0;whiteSpace=wrap;html=1;fontColor=#333333;fillColor=#f5f5f5;strokeColor=#666666;" parent="DtkK7vVMwpk1N3uGZUYi-197" vertex="1">
          <mxGeometry x="30" y="60" width="30" height="20" as="geometry" />
        </mxCell>
        <mxCell id="DtkK7vVMwpk1N3uGZUYi-204" value="T" style="rounded=0;whiteSpace=wrap;html=1;fillColor=#ffe6cc;strokeColor=#d79b00;" parent="DtkK7vVMwpk1N3uGZUYi-197" vertex="1">
          <mxGeometry x="60" y="60" width="30" height="20" as="geometry" />
        </mxCell>
        <mxCell id="DtkK7vVMwpk1N3uGZUYi-205" value="R" style="rounded=0;whiteSpace=wrap;html=1;fontColor=#333333;fillColor=#f5f5f5;strokeColor=#666666;" parent="DtkK7vVMwpk1N3uGZUYi-197" vertex="1">
          <mxGeometry x="90" y="60" width="30" height="20" as="geometry" />
        </mxCell>
        <mxCell id="DtkK7vVMwpk1N3uGZUYi-206" value="r_seq: 2" style="rounded=0;whiteSpace=wrap;html=1;fontColor=#969696;" parent="DtkK7vVMwpk1N3uGZUYi-197" vertex="1">
          <mxGeometry y="40" width="60" height="20" as="geometry" />
        </mxCell>
        <mxCell id="DtkK7vVMwpk1N3uGZUYi-207" value="r_off: 2" style="rounded=0;whiteSpace=wrap;html=1;fontColor=#969696;" parent="DtkK7vVMwpk1N3uGZUYi-197" vertex="1">
          <mxGeometry x="60" y="40" width="60" height="20" as="geometry" />
        </mxCell>
        <mxCell id="DtkK7vVMwpk1N3uGZUYi-208" value="" style="group" parent="1" vertex="1" connectable="0">
          <mxGeometry x="950" y="1720" width="120" height="60" as="geometry" />
        </mxCell>
        <mxCell id="DtkK7vVMwpk1N3uGZUYi-209" value="rf_dmx_t" style="rounded=0;whiteSpace=wrap;html=1;fontFamily=Courier New;fontStyle=1" parent="DtkK7vVMwpk1N3uGZUYi-208" vertex="1">
          <mxGeometry width="120" height="20" as="geometry" />
        </mxCell>
        <mxCell id="DtkK7vVMwpk1N3uGZUYi-210" value="seq: 2" style="rounded=0;whiteSpace=wrap;html=1;fontColor=#969696;" parent="DtkK7vVMwpk1N3uGZUYi-208" vertex="1">
          <mxGeometry y="20" width="60" height="20" as="geometry" />
        </mxCell>
        <mxCell id="DtkK7vVMwpk1N3uGZUYi-211" value="off: 2" style="rounded=0;whiteSpace=wrap;html=1;fontColor=#969696;" parent="DtkK7vVMwpk1N3uGZUYi-208" vertex="1">
          <mxGeometry x="60" y="20" width="60" height="20" as="geometry" />
        </mxCell>
        <mxCell id="DtkK7vVMwpk1N3uGZUYi-212" value="S" style="rounded=0;whiteSpace=wrap;html=1;fillColor=#f5f5f5;strokeColor=#666666;fontColor=#333333;" parent="DtkK7vVMwpk1N3uGZUYi-208" vertex="1">
          <mxGeometry y="40" width="30" height="20" as="geometry" />
        </mxCell>
        <mxCell id="DtkK7vVMwpk1N3uGZUYi-213" value="C" style="rounded=0;whiteSpace=wrap;html=1;fillColor=#f5f5f5;strokeColor=#666666;fontColor=#333333;" parent="DtkK7vVMwpk1N3uGZUYi-208" vertex="1">
          <mxGeometry x="30" y="40" width="30" height="20" as="geometry" />
        </mxCell>
        <mxCell id="DtkK7vVMwpk1N3uGZUYi-214" value="T" style="rounded=0;whiteSpace=wrap;html=1;fillColor=#ffe6cc;strokeColor=#d79b00;" parent="DtkK7vVMwpk1N3uGZUYi-208" vertex="1">
          <mxGeometry x="60" y="40" width="30" height="20" as="geometry" />
        </mxCell>
        <mxCell id="DtkK7vVMwpk1N3uGZUYi-215" value="R" style="rounded=0;whiteSpace=wrap;html=1;fillColor=#ffe6cc;strokeColor=#d79b00;" parent="DtkK7vVMwpk1N3uGZUYi-208" vertex="1">
          <mxGeometry x="90" y="40" width="30" height="20" as="geometry" />
        </mxCell>
        <mxCell id="DtkK7vVMwpk1N3uGZUYi-216" style="rounded=0;orthogonalLoop=1;jettySize=auto;html=1;exitX=1;exitY=1;exitDx=0;exitDy=0;" parent="1" edge="1">
          <mxGeometry relative="1" as="geometry">
            <mxPoint x="1140" y="1840" as="targetPoint" />
            <mxPoint x="1070" y="1780" as="sourcePoint" />
          </mxGeometry>
        </mxCell>
        <mxCell id="DtkK7vVMwpk1N3uGZUYi-217" style="edgeStyle=orthogonalEdgeStyle;rounded=0;orthogonalLoop=1;jettySize=auto;html=1;exitX=0.25;exitY=0;exitDx=0;exitDy=0;curved=1;strokeColor=#FF99FF;" parent="1" source="DtkK7vVMwpk1N3uGZUYi-218" edge="1">
          <mxGeometry relative="1" as="geometry">
            <mxPoint x="1140" y="1840" as="targetPoint" />
          </mxGeometry>
        </mxCell>
        <mxCell id="DtkK7vVMwpk1N3uGZUYi-218" value="&lt;h1 style=&quot;font-size: 17px;&quot;&gt;&lt;font style=&quot;font-size: 17px;&quot;&gt;Resend Received&lt;/font&gt;&lt;/h1&gt;&lt;p style=&quot;font-size: 17px;&quot;&gt;Resent packet is received (invalid sequence/offset is ignored due to Resend flag), inserted into buffer based on offset position. Multipart packet identified as complete, passed to the handler with complete data&lt;/p&gt;" style="text;html=1;strokeColor=none;fillColor=none;spacing=5;spacingTop=-20;whiteSpace=wrap;overflow=hidden;rounded=0;fontSize=17;" parent="1" vertex="1">
          <mxGeometry x="910" y="1910" width="270" height="180" as="geometry" />
        </mxCell>
        <mxCell id="DtkK7vVMwpk1N3uGZUYi-219" value="" style="endArrow=baseDash;html=1;rounded=0;dashed=1;dashPattern=1 4;endFill=0;" parent="1" edge="1">
          <mxGeometry width="50" height="50" relative="1" as="geometry">
            <mxPoint x="1140" y="1840" as="sourcePoint" />
            <mxPoint x="1140" y="1860" as="targetPoint" />
          </mxGeometry>
        </mxCell>
        <mxCell id="DtkK7vVMwpk1N3uGZUYi-220" style="edgeStyle=orthogonalEdgeStyle;rounded=0;orthogonalLoop=1;jettySize=auto;html=1;exitX=0;exitY=1;exitDx=0;exitDy=0;curved=1;strokeColor=#FF99FF;entryX=0.5;entryY=0;entryDx=0;entryDy=0;" parent="1" source="DtkK7vVMwpk1N3uGZUYi-221" target="DtkK7vVMwpk1N3uGZUYi-209" edge="1">
          <mxGeometry relative="1" as="geometry">
            <mxPoint x="850" y="1740" as="targetPoint" />
          </mxGeometry>
        </mxCell>
        <mxCell id="DtkK7vVMwpk1N3uGZUYi-221" value="&lt;h1 style=&quot;font-size: 17px;&quot;&gt;&lt;font style=&quot;font-size: 17px;&quot;&gt;Resend&lt;/font&gt;&lt;/h1&gt;&lt;p style=&quot;font-size: 17px;&quot;&gt;Identical packet is sent (without modifying sequence or offset) but with the resend flag has been set.&amp;nbsp;&lt;br style=&quot;font-size: 17px;&quot;&gt;&lt;/p&gt;" style="text;html=1;strokeColor=none;fillColor=none;spacing=5;spacingTop=-20;whiteSpace=wrap;overflow=hidden;rounded=0;fontSize=17;" parent="1" vertex="1">
          <mxGeometry x="920" y="1540" width="270" height="110" as="geometry" />
        </mxCell>
        <mxCell id="DtkK7vVMwpk1N3uGZUYi-222" style="rounded=0;orthogonalLoop=1;jettySize=auto;html=1;exitX=1;exitY=1;exitDx=0;exitDy=0;" parent="1" edge="1">
          <mxGeometry relative="1" as="geometry">
            <mxPoint x="520" y="1840" as="targetPoint" />
            <mxPoint x="450" y="1780" as="sourcePoint" />
          </mxGeometry>
        </mxCell>
        <mxCell id="DtkK7vVMwpk1N3uGZUYi-282" value="" style="endArrow=none;html=1;rounded=0;strokeColor=#CFCFCF;" parent="1" edge="1">
          <mxGeometry width="50" height="50" relative="1" as="geometry">
            <mxPoint x="140" y="1840.5" as="sourcePoint" />
            <mxPoint x="1210" y="1840" as="targetPoint" />
          </mxGeometry>
        </mxCell>
        <mxCell id="DtkK7vVMwpk1N3uGZUYi-284" value="" style="shape=image;html=1;verticalAlign=top;verticalLabelPosition=bottom;labelBackgroundColor=#ffffff;imageAspect=0;aspect=fixed;image=https://cdn0.iconfinder.com/data/icons/evericons-16px/16/x-128.png" parent="1" vertex="1">
          <mxGeometry x="630" y="1800" width="20" height="20" as="geometry" />
        </mxCell>
        <mxCell id="DtkK7vVMwpk1N3uGZUYi-285" style="rounded=0;orthogonalLoop=1;jettySize=auto;html=1;exitX=1;exitY=1;exitDx=0;exitDy=0;entryX=0;entryY=0;entryDx=0;entryDy=0;" parent="1" target="DtkK7vVMwpk1N3uGZUYi-284" edge="1">
          <mxGeometry relative="1" as="geometry">
            <mxPoint x="680" y="1840" as="targetPoint" />
            <mxPoint x="610" y="1780" as="sourcePoint" />
          </mxGeometry>
        </mxCell>
        <mxCell id="DtkK7vVMwpk1N3uGZUYi-287" value="Master" style="rounded=0;whiteSpace=wrap;html=1;" parent="1" vertex="1">
          <mxGeometry x="20" y="2220" width="120" height="60" as="geometry" />
        </mxCell>
        <mxCell id="DtkK7vVMwpk1N3uGZUYi-288" value="Node" style="rounded=0;whiteSpace=wrap;html=1;" parent="1" vertex="1">
          <mxGeometry x="20" y="2310" width="120" height="60" as="geometry" />
        </mxCell>
        <mxCell id="DtkK7vVMwpk1N3uGZUYi-289" value="" style="endArrow=none;html=1;rounded=0;strokeColor=#CFCFCF;" parent="1" source="DtkK7vVMwpk1N3uGZUYi-287" edge="1">
          <mxGeometry width="50" height="50" relative="1" as="geometry">
            <mxPoint x="140" y="2249.71" as="sourcePoint" />
            <mxPoint x="1210" y="2249" as="targetPoint" />
          </mxGeometry>
        </mxCell>
        <mxCell id="DtkK7vVMwpk1N3uGZUYi-290" value="" style="group" parent="1" vertex="1" connectable="0">
          <mxGeometry x="170" y="2220" width="120" height="60" as="geometry" />
        </mxCell>
        <mxCell id="DtkK7vVMwpk1N3uGZUYi-291" value="rf_dmx_t" style="rounded=0;whiteSpace=wrap;html=1;fontFamily=Courier New;fontStyle=1" parent="DtkK7vVMwpk1N3uGZUYi-290" vertex="1">
          <mxGeometry width="120" height="20" as="geometry" />
        </mxCell>
        <mxCell id="DtkK7vVMwpk1N3uGZUYi-292" value="seq: 0" style="rounded=0;whiteSpace=wrap;html=1;fontColor=#969696;" parent="DtkK7vVMwpk1N3uGZUYi-290" vertex="1">
          <mxGeometry y="20" width="60" height="20" as="geometry" />
        </mxCell>
        <mxCell id="DtkK7vVMwpk1N3uGZUYi-293" value="off: 0" style="rounded=0;whiteSpace=wrap;html=1;fontColor=#969696;" parent="DtkK7vVMwpk1N3uGZUYi-290" vertex="1">
          <mxGeometry x="60" y="20" width="60" height="20" as="geometry" />
        </mxCell>
        <mxCell id="DtkK7vVMwpk1N3uGZUYi-294" value="S" style="rounded=0;whiteSpace=wrap;html=1;fillColor=#ffe6cc;strokeColor=#d79b00;" parent="DtkK7vVMwpk1N3uGZUYi-290" vertex="1">
          <mxGeometry y="40" width="30" height="20" as="geometry" />
        </mxCell>
        <mxCell id="DtkK7vVMwpk1N3uGZUYi-295" value="C" style="rounded=0;whiteSpace=wrap;html=1;fontColor=#333333;fillColor=#f5f5f5;strokeColor=#666666;" parent="DtkK7vVMwpk1N3uGZUYi-290" vertex="1">
          <mxGeometry x="30" y="40" width="30" height="20" as="geometry" />
        </mxCell>
        <mxCell id="DtkK7vVMwpk1N3uGZUYi-296" value="T" style="rounded=0;whiteSpace=wrap;html=1;fillColor=#f5f5f5;strokeColor=#666666;fontColor=#333333;" parent="DtkK7vVMwpk1N3uGZUYi-290" vertex="1">
          <mxGeometry x="60" y="40" width="30" height="20" as="geometry" />
        </mxCell>
        <mxCell id="DtkK7vVMwpk1N3uGZUYi-297" value="R" style="rounded=0;whiteSpace=wrap;html=1;fontColor=#333333;fillColor=#f5f5f5;strokeColor=#666666;" parent="DtkK7vVMwpk1N3uGZUYi-290" vertex="1">
          <mxGeometry x="90" y="40" width="30" height="20" as="geometry" />
        </mxCell>
        <mxCell id="DtkK7vVMwpk1N3uGZUYi-298" value="" style="group" parent="1" vertex="1" connectable="0">
          <mxGeometry x="330" y="2220" width="120" height="60" as="geometry" />
        </mxCell>
        <mxCell id="DtkK7vVMwpk1N3uGZUYi-299" value="rf_dmx_t" style="rounded=0;whiteSpace=wrap;html=1;fontFamily=Courier New;fontStyle=1" parent="DtkK7vVMwpk1N3uGZUYi-298" vertex="1">
          <mxGeometry width="120" height="20" as="geometry" />
        </mxCell>
        <mxCell id="DtkK7vVMwpk1N3uGZUYi-300" value="seq: 1" style="rounded=0;whiteSpace=wrap;html=1;fontColor=#969696;" parent="DtkK7vVMwpk1N3uGZUYi-298" vertex="1">
          <mxGeometry y="20" width="60" height="20" as="geometry" />
        </mxCell>
        <mxCell id="DtkK7vVMwpk1N3uGZUYi-301" value="off: 1" style="rounded=0;whiteSpace=wrap;html=1;fontColor=#969696;" parent="DtkK7vVMwpk1N3uGZUYi-298" vertex="1">
          <mxGeometry x="60" y="20" width="60" height="20" as="geometry" />
        </mxCell>
        <mxCell id="DtkK7vVMwpk1N3uGZUYi-302" value="S" style="rounded=0;whiteSpace=wrap;html=1;fillColor=#f5f5f5;strokeColor=#666666;fontColor=#333333;" parent="DtkK7vVMwpk1N3uGZUYi-298" vertex="1">
          <mxGeometry y="40" width="30" height="20" as="geometry" />
        </mxCell>
        <mxCell id="DtkK7vVMwpk1N3uGZUYi-303" value="C" style="rounded=0;whiteSpace=wrap;html=1;fillColor=#ffe6cc;strokeColor=#d79b00;" parent="DtkK7vVMwpk1N3uGZUYi-298" vertex="1">
          <mxGeometry x="30" y="40" width="30" height="20" as="geometry" />
        </mxCell>
        <mxCell id="DtkK7vVMwpk1N3uGZUYi-304" value="T" style="rounded=0;whiteSpace=wrap;html=1;fillColor=#f5f5f5;strokeColor=#666666;fontColor=#333333;" parent="DtkK7vVMwpk1N3uGZUYi-298" vertex="1">
          <mxGeometry x="60" y="40" width="30" height="20" as="geometry" />
        </mxCell>
        <mxCell id="DtkK7vVMwpk1N3uGZUYi-305" value="R" style="rounded=0;whiteSpace=wrap;html=1;fontColor=#333333;fillColor=#f5f5f5;strokeColor=#666666;" parent="DtkK7vVMwpk1N3uGZUYi-298" vertex="1">
          <mxGeometry x="90" y="40" width="30" height="20" as="geometry" />
        </mxCell>
        <mxCell id="DtkK7vVMwpk1N3uGZUYi-306" value="" style="group" parent="1" vertex="1" connectable="0">
          <mxGeometry x="490" y="2220" width="120" height="60" as="geometry" />
        </mxCell>
        <mxCell id="DtkK7vVMwpk1N3uGZUYi-307" value="rf_dmx_t" style="rounded=0;whiteSpace=wrap;html=1;fontFamily=Courier New;fontStyle=1" parent="DtkK7vVMwpk1N3uGZUYi-306" vertex="1">
          <mxGeometry width="120" height="20" as="geometry" />
        </mxCell>
        <mxCell id="DtkK7vVMwpk1N3uGZUYi-308" value="seq: 2" style="rounded=0;whiteSpace=wrap;html=1;fontColor=#969696;" parent="DtkK7vVMwpk1N3uGZUYi-306" vertex="1">
          <mxGeometry y="20" width="60" height="20" as="geometry" />
        </mxCell>
        <mxCell id="DtkK7vVMwpk1N3uGZUYi-309" value="off: 2" style="rounded=0;whiteSpace=wrap;html=1;fontColor=#969696;" parent="DtkK7vVMwpk1N3uGZUYi-306" vertex="1">
          <mxGeometry x="60" y="20" width="60" height="20" as="geometry" />
        </mxCell>
        <mxCell id="DtkK7vVMwpk1N3uGZUYi-310" value="S" style="rounded=0;whiteSpace=wrap;html=1;fillColor=#f5f5f5;strokeColor=#666666;fontColor=#333333;" parent="DtkK7vVMwpk1N3uGZUYi-306" vertex="1">
          <mxGeometry y="40" width="30" height="20" as="geometry" />
        </mxCell>
        <mxCell id="DtkK7vVMwpk1N3uGZUYi-311" value="C" style="rounded=0;whiteSpace=wrap;html=1;fontColor=#333333;fillColor=#f5f5f5;strokeColor=#666666;" parent="DtkK7vVMwpk1N3uGZUYi-306" vertex="1">
          <mxGeometry x="30" y="40" width="30" height="20" as="geometry" />
        </mxCell>
        <mxCell id="DtkK7vVMwpk1N3uGZUYi-312" value="T" style="rounded=0;whiteSpace=wrap;html=1;fillColor=#ffe6cc;strokeColor=#d79b00;" parent="DtkK7vVMwpk1N3uGZUYi-306" vertex="1">
          <mxGeometry x="60" y="40" width="30" height="20" as="geometry" />
        </mxCell>
        <mxCell id="DtkK7vVMwpk1N3uGZUYi-313" value="R" style="rounded=0;whiteSpace=wrap;html=1;fontColor=#333333;fillColor=#f5f5f5;strokeColor=#666666;" parent="DtkK7vVMwpk1N3uGZUYi-306" vertex="1">
          <mxGeometry x="90" y="40" width="30" height="20" as="geometry" />
        </mxCell>
        <mxCell id="DtkK7vVMwpk1N3uGZUYi-314" style="rounded=0;orthogonalLoop=1;jettySize=auto;html=1;exitX=1;exitY=1;exitDx=0;exitDy=0;" parent="1" edge="1">
          <mxGeometry relative="1" as="geometry">
            <mxPoint x="350" y="2340" as="targetPoint" />
            <mxPoint x="290" y="2280" as="sourcePoint" />
          </mxGeometry>
        </mxCell>
        <mxCell id="DtkK7vVMwpk1N3uGZUYi-315" style="edgeStyle=orthogonalEdgeStyle;rounded=0;orthogonalLoop=1;jettySize=auto;html=1;exitX=0.25;exitY=0;exitDx=0;exitDy=0;curved=1;strokeColor=#FF99FF;" parent="1" source="DtkK7vVMwpk1N3uGZUYi-316" edge="1">
          <mxGeometry relative="1" as="geometry">
            <mxPoint x="840" y="2340" as="targetPoint" />
          </mxGeometry>
        </mxCell>
        <mxCell id="DtkK7vVMwpk1N3uGZUYi-316" value="&lt;h1 style=&quot;font-size: 17px;&quot;&gt;&lt;font style=&quot;font-size: 17px;&quot;&gt;Loss&lt;/font&gt;&lt;/h1&gt;&lt;p style=&quot;font-size: 17px;&quot;&gt;Loss is identified based the wrong sequence number. However, as a new start packet was received, all previous cached data is destroyed and new assembly begins&lt;br style=&quot;font-size: 17px;&quot;&gt;&lt;/p&gt;" style="text;html=1;strokeColor=none;fillColor=none;spacing=5;spacingTop=-20;whiteSpace=wrap;overflow=hidden;rounded=0;fontSize=17;" parent="1" vertex="1">
          <mxGeometry x="717" y="2390" width="253" height="170" as="geometry" />
        </mxCell>
        <mxCell id="DtkK7vVMwpk1N3uGZUYi-317" value="Single Multipart Terminate Packet Loss (Next)" style="text;html=1;strokeColor=none;fillColor=none;align=left;verticalAlign=top;whiteSpace=wrap;rounded=0;fontStyle=1;fontSize=20;" parent="1" vertex="1">
          <mxGeometry x="20" y="2170" width="510" height="30" as="geometry" />
        </mxCell>
        <mxCell id="DtkK7vVMwpk1N3uGZUYi-343" style="rounded=0;orthogonalLoop=1;jettySize=auto;html=1;exitX=1;exitY=1;exitDx=0;exitDy=0;" parent="1" edge="1">
          <mxGeometry relative="1" as="geometry">
            <mxPoint x="520" y="2340" as="targetPoint" />
            <mxPoint x="450" y="2280" as="sourcePoint" />
          </mxGeometry>
        </mxCell>
        <mxCell id="DtkK7vVMwpk1N3uGZUYi-344" value="" style="endArrow=none;html=1;rounded=0;strokeColor=#CFCFCF;" parent="1" edge="1">
          <mxGeometry width="50" height="50" relative="1" as="geometry">
            <mxPoint x="140" y="2340.5" as="sourcePoint" />
            <mxPoint x="1210" y="2339" as="targetPoint" />
          </mxGeometry>
        </mxCell>
        <mxCell id="DtkK7vVMwpk1N3uGZUYi-345" value="" style="shape=image;html=1;verticalAlign=top;verticalLabelPosition=bottom;labelBackgroundColor=#ffffff;imageAspect=0;aspect=fixed;image=https://cdn0.iconfinder.com/data/icons/evericons-16px/16/x-128.png" parent="1" vertex="1">
          <mxGeometry x="630" y="2300" width="20" height="20" as="geometry" />
        </mxCell>
        <mxCell id="DtkK7vVMwpk1N3uGZUYi-346" style="rounded=0;orthogonalLoop=1;jettySize=auto;html=1;exitX=1;exitY=1;exitDx=0;exitDy=0;entryX=0;entryY=0;entryDx=0;entryDy=0;" parent="1" target="DtkK7vVMwpk1N3uGZUYi-345" edge="1">
          <mxGeometry relative="1" as="geometry">
            <mxPoint x="680" y="2340" as="targetPoint" />
            <mxPoint x="610" y="2280" as="sourcePoint" />
          </mxGeometry>
        </mxCell>
        <mxCell id="DtkK7vVMwpk1N3uGZUYi-348" value="" style="group" parent="1" vertex="1" connectable="0">
          <mxGeometry x="650" y="2220" width="120" height="60" as="geometry" />
        </mxCell>
        <mxCell id="DtkK7vVMwpk1N3uGZUYi-349" value="rf_dmx_t" style="rounded=0;whiteSpace=wrap;html=1;fontFamily=Courier New;fontStyle=1" parent="DtkK7vVMwpk1N3uGZUYi-348" vertex="1">
          <mxGeometry width="120" height="20" as="geometry" />
        </mxCell>
        <mxCell id="DtkK7vVMwpk1N3uGZUYi-350" value="seq: 3" style="rounded=0;whiteSpace=wrap;html=1;fontColor=#969696;" parent="DtkK7vVMwpk1N3uGZUYi-348" vertex="1">
          <mxGeometry y="20" width="60" height="20" as="geometry" />
        </mxCell>
        <mxCell id="DtkK7vVMwpk1N3uGZUYi-351" value="off: 0" style="rounded=0;whiteSpace=wrap;html=1;fontColor=#969696;" parent="DtkK7vVMwpk1N3uGZUYi-348" vertex="1">
          <mxGeometry x="60" y="20" width="60" height="20" as="geometry" />
        </mxCell>
        <mxCell id="DtkK7vVMwpk1N3uGZUYi-352" value="S" style="rounded=0;whiteSpace=wrap;html=1;fillColor=#ffe6cc;strokeColor=#d79b00;" parent="DtkK7vVMwpk1N3uGZUYi-348" vertex="1">
          <mxGeometry y="40" width="30" height="20" as="geometry" />
        </mxCell>
        <mxCell id="DtkK7vVMwpk1N3uGZUYi-353" value="C" style="rounded=0;whiteSpace=wrap;html=1;fontColor=#333333;fillColor=#f5f5f5;strokeColor=#666666;" parent="DtkK7vVMwpk1N3uGZUYi-348" vertex="1">
          <mxGeometry x="30" y="40" width="30" height="20" as="geometry" />
        </mxCell>
        <mxCell id="DtkK7vVMwpk1N3uGZUYi-354" value="T" style="rounded=0;whiteSpace=wrap;html=1;fillColor=#f5f5f5;strokeColor=#666666;fontColor=#333333;" parent="DtkK7vVMwpk1N3uGZUYi-348" vertex="1">
          <mxGeometry x="60" y="40" width="30" height="20" as="geometry" />
        </mxCell>
        <mxCell id="DtkK7vVMwpk1N3uGZUYi-356" style="edgeStyle=none;rounded=0;orthogonalLoop=1;jettySize=auto;html=1;exitX=1;exitY=1;exitDx=0;exitDy=0;" parent="DtkK7vVMwpk1N3uGZUYi-348" source="DtkK7vVMwpk1N3uGZUYi-355" edge="1">
          <mxGeometry relative="1" as="geometry">
            <mxPoint x="190" y="120" as="targetPoint" />
          </mxGeometry>
        </mxCell>
        <mxCell id="DtkK7vVMwpk1N3uGZUYi-355" value="R" style="rounded=0;whiteSpace=wrap;html=1;fontColor=#333333;fillColor=#f5f5f5;strokeColor=#666666;" parent="DtkK7vVMwpk1N3uGZUYi-348" vertex="1">
          <mxGeometry x="90" y="40" width="30" height="20" as="geometry" />
        </mxCell>
        <mxCell id="vUm_0Yl15IcYwfzjkSin-2" value="Timeout" style="shape=singleArrow;whiteSpace=wrap;html=1;fillColor=#f8cecc;strokeColor=#b85450;fontSize=6;fontColor=#990000;arrowWidth=0.36049382716050793;arrowSize=0.33544973544973766;" parent="1" vertex="1">
          <mxGeometry x="675" y="1780" width="70" height="30" as="geometry" />
        </mxCell>
        <mxCell id="Oq6yGm-eyIS1vidFUM4D-2" value="" style="group" parent="1" vertex="1" connectable="0">
          <mxGeometry x="1400" y="80" width="120" height="60" as="geometry" />
        </mxCell>
        <mxCell id="Oq6yGm-eyIS1vidFUM4D-3" value="rf_dmx_t" style="rounded=0;whiteSpace=wrap;html=1;fontFamily=Courier New;fontStyle=1" parent="Oq6yGm-eyIS1vidFUM4D-2" vertex="1">
          <mxGeometry width="120" height="20" as="geometry" />
        </mxCell>
        <mxCell id="Oq6yGm-eyIS1vidFUM4D-4" value="seq: 2" style="rounded=0;whiteSpace=wrap;html=1;fontColor=#969696;" parent="Oq6yGm-eyIS1vidFUM4D-2" vertex="1">
          <mxGeometry y="20" width="60" height="20" as="geometry" />
        </mxCell>
        <mxCell id="Oq6yGm-eyIS1vidFUM4D-5" value="off: 0" style="rounded=0;whiteSpace=wrap;html=1;fontColor=#969696;" parent="Oq6yGm-eyIS1vidFUM4D-2" vertex="1">
          <mxGeometry x="60" y="20" width="60" height="20" as="geometry" />
        </mxCell>
        <mxCell id="Oq6yGm-eyIS1vidFUM4D-6" value="S" style="rounded=0;whiteSpace=wrap;html=1;fillColor=#ffe6cc;strokeColor=#d79b00;" parent="Oq6yGm-eyIS1vidFUM4D-2" vertex="1">
          <mxGeometry y="40" width="30" height="20" as="geometry" />
        </mxCell>
        <mxCell id="Oq6yGm-eyIS1vidFUM4D-7" value="C" style="rounded=0;whiteSpace=wrap;html=1;fontColor=#333333;fillColor=#f5f5f5;strokeColor=#666666;" parent="Oq6yGm-eyIS1vidFUM4D-2" vertex="1">
          <mxGeometry x="30" y="40" width="30" height="20" as="geometry" />
        </mxCell>
        <mxCell id="Oq6yGm-eyIS1vidFUM4D-9" value="T" style="rounded=0;whiteSpace=wrap;html=1;fillColor=#ffe6cc;strokeColor=#d79b00;" parent="Oq6yGm-eyIS1vidFUM4D-2" vertex="1">
          <mxGeometry x="60" y="40" width="30" height="20" as="geometry" />
        </mxCell>
        <mxCell id="Oq6yGm-eyIS1vidFUM4D-10" value="R" style="rounded=0;whiteSpace=wrap;html=1;fontColor=#333333;fillColor=#f5f5f5;strokeColor=#666666;" parent="Oq6yGm-eyIS1vidFUM4D-2" vertex="1">
          <mxGeometry x="90" y="40" width="30" height="20" as="geometry" />
        </mxCell>
        <mxCell id="Oq6yGm-eyIS1vidFUM4D-11" value="rf_request_t" style="rounded=0;whiteSpace=wrap;html=1;fontFamily=Courier New;fontStyle=1" parent="1" vertex="1">
          <mxGeometry x="1690" y="80" width="120" height="20" as="geometry" />
        </mxCell>
        <mxCell id="Oq6yGm-eyIS1vidFUM4D-12" value="seq: 0" style="rounded=0;whiteSpace=wrap;html=1;fontColor=#969696;" parent="1" vertex="1">
          <mxGeometry x="1690" y="100" width="60" height="20" as="geometry" />
        </mxCell>
        <mxCell id="Oq6yGm-eyIS1vidFUM4D-13" value="off: 0" style="rounded=0;whiteSpace=wrap;html=1;fontColor=#969696;" parent="1" vertex="1">
          <mxGeometry x="1750" y="100" width="60" height="20" as="geometry" />
        </mxCell>
        <mxCell id="Oq6yGm-eyIS1vidFUM4D-14" value="r_seq: 1" style="rounded=0;whiteSpace=wrap;html=1;fontColor=#969696;" parent="1" vertex="1">
          <mxGeometry x="1690" y="120" width="60" height="20" as="geometry" />
        </mxCell>
        <mxCell id="Oq6yGm-eyIS1vidFUM4D-15" value="r_off: 1" style="rounded=0;whiteSpace=wrap;html=1;fontColor=#969696;" parent="1" vertex="1">
          <mxGeometry x="1750" y="120" width="60" height="20" as="geometry" />
        </mxCell>
        <mxCell id="Oq6yGm-eyIS1vidFUM4D-18" style="edgeStyle=none;rounded=0;orthogonalLoop=1;jettySize=auto;html=1;exitX=0;exitY=1;exitDx=0;exitDy=0;" parent="1" source="Oq6yGm-eyIS1vidFUM4D-16" edge="1">
          <mxGeometry relative="1" as="geometry">
            <mxPoint x="1491.1111111111109" y="90" as="targetPoint" />
          </mxGeometry>
        </mxCell>
        <mxCell id="Oq6yGm-eyIS1vidFUM4D-19" style="edgeStyle=none;rounded=0;orthogonalLoop=1;jettySize=auto;html=1;exitX=1;exitY=1;exitDx=0;exitDy=0;" parent="1" source="Oq6yGm-eyIS1vidFUM4D-16" edge="1">
          <mxGeometry relative="1" as="geometry">
            <mxPoint x="1700" y="87" as="targetPoint" />
          </mxGeometry>
        </mxCell>
        <mxCell id="Oq6yGm-eyIS1vidFUM4D-16" value="Packet Type" style="text;html=1;strokeColor=none;fillColor=none;align=center;verticalAlign=middle;whiteSpace=wrap;rounded=0;fontSize=15;" parent="1" vertex="1">
          <mxGeometry x="1570" y="20" width="90" height="30" as="geometry" />
        </mxCell>
        <mxCell id="Oq6yGm-eyIS1vidFUM4D-23" style="edgeStyle=none;rounded=0;orthogonalLoop=1;jettySize=auto;html=1;exitX=0;exitY=0.5;exitDx=0;exitDy=0;" parent="1" source="Oq6yGm-eyIS1vidFUM4D-22" edge="1">
          <mxGeometry relative="1" as="geometry">
            <mxPoint x="1526" y="108" as="targetPoint" />
          </mxGeometry>
        </mxCell>
        <mxCell id="Oq6yGm-eyIS1vidFUM4D-24" style="edgeStyle=none;rounded=0;orthogonalLoop=1;jettySize=auto;html=1;exitX=1;exitY=0.5;exitDx=0;exitDy=0;" parent="1" source="Oq6yGm-eyIS1vidFUM4D-22" edge="1">
          <mxGeometry relative="1" as="geometry">
            <mxPoint x="1687" y="113" as="targetPoint" />
          </mxGeometry>
        </mxCell>
        <mxCell id="Oq6yGm-eyIS1vidFUM4D-22" value="Global Sequence and Offset" style="text;html=1;strokeColor=none;fillColor=none;align=center;verticalAlign=middle;whiteSpace=wrap;rounded=0;fontSize=15;" parent="1" vertex="1">
          <mxGeometry x="1560" y="95" width="90" height="30" as="geometry" />
        </mxCell>
        <mxCell id="Oq6yGm-eyIS1vidFUM4D-26" style="edgeStyle=none;rounded=0;orthogonalLoop=1;jettySize=auto;html=1;exitX=1;exitY=0;exitDx=0;exitDy=0;" parent="1" source="Oq6yGm-eyIS1vidFUM4D-25" edge="1">
          <mxGeometry relative="1" as="geometry">
            <mxPoint x="1683" y="143" as="targetPoint" />
          </mxGeometry>
        </mxCell>
        <mxCell id="Oq6yGm-eyIS1vidFUM4D-27" style="edgeStyle=none;rounded=0;orthogonalLoop=1;jettySize=auto;html=1;exitX=0;exitY=0;exitDx=0;exitDy=0;" parent="1" source="Oq6yGm-eyIS1vidFUM4D-25" edge="1">
          <mxGeometry relative="1" as="geometry">
            <mxPoint x="1521.1111111111109" y="138.33333333333337" as="targetPoint" />
          </mxGeometry>
        </mxCell>
        <mxCell id="Oq6yGm-eyIS1vidFUM4D-25" value="Packet Specific Data" style="text;html=1;strokeColor=none;fillColor=none;align=center;verticalAlign=middle;whiteSpace=wrap;rounded=0;fontSize=15;" parent="1" vertex="1">
          <mxGeometry x="1550" y="190" width="90" height="30" as="geometry" />
        </mxCell>
        <mxCell id="Oq6yGm-eyIS1vidFUM4D-29" style="edgeStyle=none;rounded=0;orthogonalLoop=1;jettySize=auto;html=1;exitX=1;exitY=0;exitDx=0;exitDy=0;" parent="1" source="Oq6yGm-eyIS1vidFUM4D-28" edge="1">
          <mxGeometry relative="1" as="geometry">
            <mxPoint x="1394.4444444444443" y="136.1111111111111" as="targetPoint" />
          </mxGeometry>
        </mxCell>
        <mxCell id="Oq6yGm-eyIS1vidFUM4D-28" value="Flags: Set highlighted in orange, unset in gray" style="text;html=1;strokeColor=none;fillColor=none;align=center;verticalAlign=middle;whiteSpace=wrap;rounded=0;fontSize=15;" parent="1" vertex="1">
          <mxGeometry x="1270" y="160" width="90" height="30" as="geometry" />
        </mxCell>
        <mxCell id="Oq6yGm-eyIS1vidFUM4D-31" style="edgeStyle=none;rounded=0;orthogonalLoop=1;jettySize=auto;html=1;exitX=0;exitY=0;exitDx=0;exitDy=0;" parent="1" source="Oq6yGm-eyIS1vidFUM4D-30" edge="1">
          <mxGeometry relative="1" as="geometry">
            <mxPoint x="1803" y="134" as="targetPoint" />
          </mxGeometry>
        </mxCell>
        <mxCell id="Oq6yGm-eyIS1vidFUM4D-30" value="Requested offset and sequence" style="text;html=1;strokeColor=none;fillColor=none;align=center;verticalAlign=middle;whiteSpace=wrap;rounded=0;fontSize=15;" parent="1" vertex="1">
          <mxGeometry x="1820" y="170" width="90" height="30" as="geometry" />
        </mxCell>
        <mxCell id="Oq6yGm-eyIS1vidFUM4D-32" value="Start" style="text;html=1;strokeColor=none;fillColor=none;align=left;verticalAlign=middle;whiteSpace=wrap;rounded=0;fontSize=15;rotation=90;" parent="1" vertex="1">
          <mxGeometry x="1370" y="175" width="90" height="30" as="geometry" />
        </mxCell>
        <mxCell id="Oq6yGm-eyIS1vidFUM4D-33" value="Continue" style="text;html=1;strokeColor=none;fillColor=none;align=left;verticalAlign=middle;whiteSpace=wrap;rounded=0;fontSize=15;rotation=90;" parent="1" vertex="1">
          <mxGeometry x="1400" y="175" width="90" height="30" as="geometry" />
        </mxCell>
        <mxCell id="Oq6yGm-eyIS1vidFUM4D-34" value="Terminate" style="text;html=1;strokeColor=none;fillColor=none;align=left;verticalAlign=middle;whiteSpace=wrap;rounded=0;fontSize=15;rotation=90;" parent="1" vertex="1">
          <mxGeometry x="1430" y="175" width="90" height="30" as="geometry" />
        </mxCell>
        <mxCell id="Oq6yGm-eyIS1vidFUM4D-35" value="Terminate" style="text;html=1;strokeColor=none;fillColor=none;align=left;verticalAlign=middle;whiteSpace=wrap;rounded=0;fontSize=15;rotation=90;" parent="1" vertex="1">
          <mxGeometry x="1460" y="175" width="90" height="30" as="geometry" />
        </mxCell>
        <mxCell id="M8aiWsDtjK3Ca1fQyiHn-1" value="" style="endArrow=none;html=1;rounded=0;strokeColor=#FF0000;" edge="1" parent="1">
          <mxGeometry width="50" height="50" relative="1" as="geometry">
            <mxPoint x="1204.5" y="2570" as="sourcePoint" />
            <mxPoint x="1204.5" y="10" as="targetPoint" />
          </mxGeometry>
        </mxCell>
      </root>
    </mxGraphModel>
  </diagram>
</mxfile>
